word	F
est	1469
a	635
ai	435
fait	423
faire	247
veux	239
faut	226
voir	219
ont	198
être	193
suis	169
avoir	164
peut	158
aime	157
sont	151
sais	136
vois	124
dire	113
dit	110
vu	100
était	97
fais	89
avez	87
donne	86
soit	78
donner	77
aimer	76
prendre	74
dis	73
veut	72
rendre	71
vient	67
trouve	64
as	63
semble	62
dois	61
doit	61
eût	60
pris	59
su	59
va	59
parler	58
serait	58
crois	56
ose	54
perdre	53
voit	53
êtes	52
rend	52
laisse	51
vais	50
ait	48
pu	48
trouver	48
viens	47
tiens	46
font	45
souffrir	45
fut	44
vaut	44
voulez	44
tient	43
avait	42
avais	41
prends	41
croire	40
sera	40
aller	39
connais	39
peux	39
Est	38
plaît	38
connaître	37
croit	37
plaire	36
sois	36
Va	36
aura	35
mettre	35
puisse	35
sait	35
servir	35
parle	34
porte	34
pense	33
pourrait	33
sortir	33
ayant	32
crains	32
fasse	32
naître	32
adore	31
apprendre	31
imprimer	31
oblige	31
quitte	31
venir	31
aurais	30
quitter	30
cherche	29
donné	29
suivre	29
tenir	29
fera	28
mis	28
paraître	28
passe	28
prend	28
Dis	27
perds	27
punir	27
savoir	27
vivre	27
attendre	26
cru	26
demeure	26
faites	26
fût	26
saurais	26
taire	26
aurai	25
étais	25
montrer	25
mourir	25
sert	25
changer	24
chercher	24
fallait	24
fit	24
montre	24
perdu	24
permis	24
rompre	24
aimé	23
attends	23
obliger	23
possède	23
pouvez	23
promis	23
souffre	23
suit	23
trahir	23
vouloir	23
voyant	23
aimez	22
aurait	22
consentir	22
conter	22
entendre	22
espérer	22
Fais	22
ferai	22
met	22
obéir	22
plaindre	22
porter	22
rends	22
venger	22
voulu	22
brûle	21
es	21
étant	21
juger	21
offrir	21
reçu	21
rendu	21
rire	21
voudrais	21
Allez	20
craindre	20
faisait	20
gagner	20
ôter	20
prétendre	20
résoudre	20
suffit	20
vis	20
Vois	20
voyez	20
Voyez	20
cède	19
change	19
défendre	19
entends	19
espère	19
été	19
eu	19
flatter	19
importune	19
recevoir	19
savez	19
tâche	19
trompe	19
appelle	18
assurer	18
avons	18
devient	18
dites	18
écouter	18
engage	18
guérir	18
hasarder	18
jouer	18
Laisse	18
manque	18
pourra	18
pouvait	18
saurait	18
soient	18
tirer	18
accepter	17
cacher	17
devez	17
entretenir	17
eus	17
eut	17
garder	17
importe	17
manquer	17
presse	17
user	17
vit	17
allons	16
attend	16
Crois	16
demande	16
empêcher	16
emporte	16
flatte	16
meurs	16
ôte	16
pensez	16
perd	16
pourrais	16
prie	16
sache	16
surprendre	16
trouvé	16
venge	16
verrez	16
Allons	15
arrête	15
assure	15
aurez	15
conserver	15
courir	15
demander	15
douter	15
entrer	15
envoie	15
étonne	15
Fait	15
Faites	15
fus	15
mentir	15
néglige	15
penser	15
prenez	15
sens	15
traiter	15
allez	14
croyais	14
étaient	14
exposer	14
gagne	14
haïr	14
meurt	14
paraît	14
passé	14
pouvais	14
prépare	14
produit	14
pût	14
remettre	14
rende	14
serais	14
serez	14
tienne	14
traite	14
abandonne	13
a-t	13
chéris	13
croyez	13
divertir	13
donnent	13
doute	13
éviter	13
faite	13
feindre	13
ferait	13
fuis	13
imiter	13
laisser	13
Ont	13
peuvent	13
plains	13
ravie	13
rencontre	13
sommes	13
soupire	13
tue	13
verra	13
agir	12
appris	12
auront	12
ayez	12
cache	12
connu	12
déplaire	12
disposer	12
Dites	12
mort	12
offre	12
persuader	12
point	12
prendrai	12
ravi	12
ressemble	12
sauver	12
sort	12
Souffrez	12
touche	12
trouble	12
voulait	12
abuse	11
acquérir	11
Ai	11
apprends	11
assuré	11
augmente	11
contraindre	11
défaire	11
eusse	11
excuse	11
faudrait	11
gagné	11
Laissez	11
lire	11
offense	11
ouvre	11
passer	11
porté	11
pourrez	11
pourrons	11
présume	11
ravir	11
reçois	11
réduit	11
réduite	11
regarde	11
rendez	11
réponds	11
rit	11
saurai	11
sauraient	11
tromper	11
verras	11
verrons	11
Viens	11
vont	11
abandonner	10
admire	10
amène	10
approcher	10
arrêter	10
attache	10
avancer	10
avertir	10
caché	10
charme	10
dédire	10
déguise	10
devoir	10
dispose	10
donnez	10
Donnez	10
échapper	10
forcer	10
jette	10
jure	10
laissé	10
mets	10
nommer	10
obstine	10
offenser	10
oses	10
pouviez	10
promets	10
Puisse	10
quereller	10
quitté	10
redouble	10
seras	10
Sont	10
souffrez	10
souhaite	10
soyez	10
suivant	10
tremble	10
viennent	10
adorer	9
aimant	9
aimée	9
apaiser	9
blesse	9
brûler	9
céder	9
celer	9
charmer	9
combattre	9
craint	9
déçu	9
déçue	9
désespère	9
devait	9
devine	9
donnée	9
écrit	9
faudra	9
feint	9
ferais	9
joue	9
mérite	9
nomme	9
obligé	9
oppose	9
parlez	9
payer	9
posséder	9
pouvoir	9
prise	9
promet	9
Quitte	9
reconnaître	9
refuse	9
représentant	9
rougir	9
saura	9
serai	9
succède	9
suivie	9
surpris	9
trahit	9
veuille	9
voie	9
aborder	8
accuse	8
aperçois	8
Apprends	8
arracher	8
atteinte	8
auriez	8
avance	8
bannir	8
causer	8
cesse	8
charmé	8
choisir	8
commence	8
comprendre	8
consens	8
conte	8
craignez	8
Croyez	8
déclarer	8
disais	8
dise	8
dissimuler	8
doivent	8
empêche	8
employer	8
enlève	8
enlever	8
éprouver	8
estimer	8
étiez	8
explique	8
finir	8
gouverner	8
imaginer	8
jugez	8
laissez	8
mépris	8
meure	8
mise	8
oublier	8
parlant	8
passés	8
Penses	8
perdez	8
pique	8
pourriez	8
puissent	8
reçus	8
réponde	8
reprocher	8
reste	8
retient	8
retirer	8
Souffre	8
tarder	8
tenez	8
tire	8
trompé	8
vaincre	8
Veux	8
voudra	8
acquis	7
affliger	7
aigrir	7
aimais	7
As	7
attendrai	7
attirer	7
aurons	7
avaient	7
aviez	7
avoue	7
cajole	7
chasser	7
choisi	7
compter	7
confesse	7
connaît	7
console	7
conté	7
couler	7
cours	7
croître	7
dédaigner	7
déguiser	7
dépend	7
déplaît	7
dérobe	7
détruit	7
deviner	7
dirai	7
distraire	7
donnant	7
Donne	7
dû	7
durer	7
échappe	7
emporter	7
endurer	7
épris	7
estime	7
éteindre	7
expliquer	7
fâcher	7
Faire	7
faisons	7
feriez	7
fonde	7
fuir	7
fuit	7
garde	7
hais	7
instruit	7
justifier	7
lit	7
méprise	7
mérité	7
mériter	7
Montre	7
osais	7
parfaite	7
Parle	7
pourrai	7
prenant	7
priver	7
promettre	7
reçoit	7
refuser	7
refusez	7
réparer	7
répond	7
reprendre	7
résolue	7
résous	7
retenir	7
revenir	7
ris	7
satisfait	7
saurez	7
sauve	7
savais	7
sentir	7
souffert	7
soupirer	7
témoigner	7
tiendrait	7
toucher	7
tourner	7
trahi	7
troubler	7
vaux	7
venez	7
vengé	7
venu	7
vole	7
voudrait	7
voulant	7
abuser	6
accable	6
accepte	6
accorde	6
accuser	6
achève	6
achever	6
admirer	6
adresse	6
allait	6
amuse	6
apporte	6
apporter	6
Arrête	6
arriver	6
atteint	6
autorise	6
blessé	6
bruit	6
cause	6
changé	6
commande	6
conduit	6
consent	6
Courbé	6
court	6
croirai	6
croirais	6
découvre	6
demeurer	6
désavouer	6
détourner	6
devenir	6
disait	6
duper	6
dûs	6
écoute	6
endure	6
engagé	6
engager	6
entreprendre	6
Étant	6
étouffe	6
évite	6
examine	6
excusez	6
expose	6
fâche	6
failli	6
faits	6
fît	6
forme	6
ignore	6
imagine	6
impute	6
irai	6
jeter	6
jouir	6
Jugez	6
livre	6
manqué	6
marcher	6
méprendre	6
montrez	6
murmurer	6
naissent	6
négliger	6
nuire	6
obtienne	6
osait	6
osant	6
oserait	6
pardonne	6
parlent	6
Parlez	6
parlons	6
partir	6
passée	6
permettez	6
Peut	6
pratiquer	6
Prends	6
présumer	6
prit	6
propose	6
reconnais	6
regarder	6
régler	6
rendant	6
rentrer	6
Représenté	6
résiste	6
résister	6
résolu	6
résout	6
retire	6
retraite	6
reviens	6
revient	6
romps	6
Sachez	6
satisfaire	6
satisfaite	6
seconder	6
secourir	6
sépare	6
seront	6
servie	6
sors	6
soupçonner	6
sut	6
Tais	6
termine	6
trouvez	6
use	6
vas	6
verrai	6
vienne	6
voudras	6
voulais	6
vouliez	6
Voyons	6
vue	6
abusée	5
accabler	5
accommode	5
accompagne	5
accompagner	5
Accorde	5
accorder	5
Achevé	5
acquise	5
acquitte	5
acquitter	5
adresser	5
aie	5
aimes	5
Aimez	5
allume	5
appeler	5
arrêté	5
attaque	5
attaquer	5
attendant	5
Avez	5
blâmer	5
brouiller	5
cachez	5
Célidée	5
cesser	5
Cessez	5
choisit	5
connue	5
contenter	5
coûte	5
découvert	5
découvrir	5
dégager	5
démêler	5
démentir	5
demeuré	5
descendre	5
diras	5
dompter	5
Donner	5
doutez	5
dupe	5
éblouir	5
ébranler	5
échappé	5
éclaircir	5
éclater	5
écrire	5
efface	5
égare	5
embarrasser	5
enflammé	5
ennuie	5
entre	5
entretiens	5
épargner	5
épouvanter	5
eussiez	5
excuser	5
Extrait	5
faisais	5
faisant	5
Faut	5
force	5
garantir	5
Garde	5
informer	5
interdit	5
ira	5
irrite	5
irriter	5
juge	5
laissant	5
lu	5
marque	5
mène	5
méprisé	5
mépriser	5
mette	5
moque	5
négligé	5
nommé	5
obtenir	5
osent	5
osez	5
Ôte	5
pâme	5
Pardonnez	5
passant	5
permet	5
Permettez	5
plais	5
Plût	5
pourras	5
Pouvez	5
préfère	5
préférer	5
prenne	5
prennent	5
préparer	5
presser	5
présumez	5
prétends	5
prît	5
prive	5
quittez	5
Quittez	5
rechercher	5
redoubler	5
réduire	5
Regarde	5
régner	5
rencontrer	5
rendit	5
rentre	5
Rentrez	5
repentir	5
répondre	5
reproche	5
revoir	5
rougis	5
saisit	5
semblait	5
seriez	5
songe	5
songer	5
sortez	5
soulage	5
soulager	5
soupçonne	5
souviens	5
suivais	5
suivez	5
suivi	5
suivis	5
suivra	5
surprise	5
tiendrais	5
tombe	5
trahis	5
trembler	5
triompher	5
trouvais	5
Trouve	5
trouvent	5
trouverez	5
usurpée	5
vante	5
viendra	5
voler	5
voulut	5
Voyant	5
voyons	5
achevé	4
affaiblir	4
aide	4
aille	4
aimait	4
aimons	4
ajouter	4
allais	4
allé	4
allumer	4
amuser	4
appelez	4
appréhendez	4
apprendra	4
apprenez	4
apprête	4
approche	4
approuver	4
arrêtez	4
arrive	4
aspire	4
assassine	4
assemble	4
assurée	4
attacher	4
auras	4
avouer	4
Ayant	4
banni	4
battre	4
braver	4
cachés	4
charger	4
chassé	4
chérir	4
chérit	4
choque	4
commandé	4
commander	4
Commandez	4
conduire	4
Confesse	4
confesser	4
confond	4
conjure	4
connaissez	4
conserve	4
Conserve	4
considéré	4
consume	4
contemple	4
contente	4
contraint	4
couvert	4
croira	4
croît	4
daigne	4
Daphnis	4
dédaigné	4
dédit	4
défend	4
défends	4
délivre	4
demandez	4
déplaise	4
déplorer	4
dérobé	4
dérober	4
désespérer	4
désobéir	4
destiné	4
deviens	4
deviez	4
devraient	4
devrait	4
diffère	4
disent	4
dissimule	4
Doit	4
dompte	4
donna	4
donnai	4
donnera	4
donnons	4
écoutez	4
élever	4
éloigné	4
émouvoir	4
entendu	4
épargne	4
épargnez	4
épouse	4
éprouve	4
espérez	4
éteint	4
étonnés	4
Être	4
excite	4
exécuter	4
faciliter	4
faille	4
feins	4
ferez	4
ferons	4
figurer	4
flattes	4
fléchir	4
forment	4
fournir	4
fournis	4
Fut	4
fuyez	4
hait	4
intéresse	4
jurer	4
languir	4
lasse	4
lassé	4
lie	4
lis	4
loger	4
louer	4
maltraite	4
manquera	4
manques	4
Mêle	4
ménage	4
méprisée	4
mettent	4
Mettre	4
montrent	4
mourant	4
obligent	4
obstinée	4
obstinez	4
ordonne	4
osé	4
oserais	4
ôtant	4
ôtent	4
outrager	4
paraissent	4
pardonnez	4
parer	4
parlais	4
parlé	4
Parlons	4
pars	4
paru	4
Passe	4
penses	4
perdant	4
perdent	4
perdrai	4
perdue	4
périr	4
persécuter	4
plaignez	4
plaint	4
possédée	4
pourraient	4
prendrez	4
prescrit	4
prête	4
prétend	4
puni	4
punit	4
raillant	4
range	4
rappeler	4
reçoive	4
reconnu	4
redouter	4
réduis	4
refroidie	4
règle	4
rejette	4
remarque	4
remise	4
rencontré	4
rendons	4
rendra	4
renonce	4
renverse	4
ressent	4
retienne	4
revancher	4
rêver	4
rompt	4
rompu	4
saisie	4
sauront	4
sauvé	4
savait	4
séduite	4
sers	4
servi	4
servira	4
sollicite	4
sortant	4
souhaiter	4
soutient	4
Souviens	4
Soyez	4
sue	4
suffire	4
Suis	4
supplante	4
supplie	4
supposée	4
surprend	4
survient	4
témoigne	4
tenait	4
tenu	4
tiendra	4
tiennent	4
tomber	4
trouveront	4
vaille	4
venait	4
vendre	4
venue	4
verriez	4
Veut	4
vieilli	4
vint	4
violenter	4
Vit	4
Voulez	4
abandonnant	3
abandonnez	3
absolue	3
accablé	3
accommoder	3
adoucir	3
affronter	3
agrée	3
agréer	3
aider	3
aimerai	3
aimerais	3
Ait	3
ajoute	3
Ajoutez	3
ajuster	3
allant	3
allumé	3
aperçue	3
appréhende	3
appréhender	3
apprend	3
apprît	3
arrache	3
aspirer	3
assassiner	3
asservir	3
associé	3
attendais	3
attendez	3
Attends	3
attire	3
attrape	3
augmenter	3
auraient	3
Aurais	3
Aurait	3
aura-t	3
aurions	3
aveuglée	3
avions	3
Avise	3
bannie	3
bannis	3
bat	3
battu	3
bine	3
blâme	3
blessée	3
borne	3
brave	3
briser	3
Briser	3
brûlant	3
brûlé	3
cachant	3
cajoler	3
caresser	3
cédé	3
cèdent	3
cessez	3
changeant	3
changée	3
changez	3
chargé	3
charmée	3
chasse	3
cherchait	3
Cherche	3
cherches	3
choir	3
choisis	3
Choisis	3
comble	3
commencé	3
communiquer	3
concertés	3
concevoir	3
condamne	3
confondre	3
conservant	3
considérer	3
consoler	3
conspire	3
contenir	3
contenu	3
contez	3
continue	3
continuer	3
contredire	3
contrefaits	3
convie	3
COURBÉ	3
courez	3
couru	3
craigne	3
Crains	3
crier	3
Croit	3
Daignez	3
déchire	3
dédaigne	3
défait	3
Dénier	3
désabuser	3
désire	3
désobliger	3
devance	3
devant	3
devenu	3
devenue	3
deviennent	3
devrais	3
différer	3
diminue	3
dîner	3
dispense	3
dispenser	3
disputer	3
dissimulée	3
Dit	3
doive	3
Donné	3
donnes	3
Donnons	3
Dorimant	3
douté	3
dupée	3
dure	3
dureront	3
ébranlé	3
éclairci	3
éclate	3
effacer	3
éloigner	3
emploie	3
Employer	3
emporté	3
enferme	3
enflammer	3
enrager	3
entreprenez	3
entretient	3
Entrez	3
Entrons	3
épouser	3
éprouvera	3
estimez	3
étonné	3
étonner	3
eurent	3
eussent	3
examiner	3
excède	3
Excusez	3
exerce	3
exprimer	3
fâché	3
faillir	3
Fallait	3
favorise	3
favoriser	3
fis	3
flattez	3
Florame	3
Font	3
forcé	3
formé	3
frapper	3
fuie	3
furent	3
fusse	3
fuyons	3
gardait	3
gardera	3
gâter	3
gêne	3
grossir	3
hâter	3
ignorais	3
immoler	3
importuner	3
impose	3
intimide	3
irait	3
iront	3
jalouse	3
jeta	3
jeté	3
joindre	3
jugerez	3
laisses	3
laissons	3
Laissons	3
lasser	3
lus	3
maintenir	3
maltraiter	3
manquait	3
manquent	3
marier	3
mêler	3
menace	3
ménager	3
ment	3
méritent	3
Met	3
montré	3
moquer	3
morte	3
mourrais	3
mourrez	3
nommez	3
nuit	3
obligeait	3
obligerez	3
obligez	3
obtient	3
offert	3
opposer	3
oublié	3
oublierai	3
ouvrant	3
ouvrir	3
Pardonne	3
pardonnerez	3
parles	3
parlions	3
parte	3
parti	3
passez	3
peindre	3
peint	3
pénétrer	3
pensais	3
pensait	3
pensé	3
perdit	3
perdrais	3
permettre	3
persiste	3
persuade	3
piquer	3
Plains	3
plaisait	3
portait	3
portant	3
Porte	3
portrait	3
possédez	3
pousser	3
pouvaient	3
prenais	3
prendra	3
prescrire	3
présente	3
présenté	3
présenter	3
pressé	3
présumais	3
prêter	3
prévois	3
prié	3
prier	3
priser	3
prodiguez	3
produire	3
provient	3
publier	3
put	3
querelle	3
ranger	3
rappelle	3
rapporte	3
rapporter	3
recevez	3
Reçois	3
récompensé	3
récompenser	3
reçût	3
regagner	3
regardé	3
règne	3
rejoindre	3
rejoint	3
remarqué	3
remets	3
remis	3
remplir	3
rendent	3
Rendez	3
rendrait	3
rendrez	3
rendue	3
Rentre	3
Rentrons	3
renvoie	3
réplique	3
respire	3
ressens	3
retiens	3
réussir	3
rêve	3
revivre	3
rie	3
rougit	3
ruse	3
rusé	3
sachant	3
Sache	3
sachez	3
sauras	3
sauriez	3
semblaient	3
semblera	3
semblerait	3
sent	3
sentais	3
séparer	3
signé	3
Signé	3
songez	3
Sortez	3
Souffrir	3
souvenir	3
souvient	3
suborner	3
suffira	3
suivrai	3
supposer	3
sus	3
tâché	3
tarde	3
tardé	3
Tenez	3
tiendrai	3
tiré	3
traité	3
traitez	3
triomphe	3
trompés	3
trouvant	3
trouvât	3
trouvée	3
trouvera	3
unir	3
vaincu	3
valait	3
valoir	3
vanter	3
vécu	3
veille	3
vends	3
vendu	3
vengée	3
verrais	3
verrions	3
viendrai	3
Vient	3
Voir	3
voudrez	3
voulût	3
vus	3
abattre	2
abattue	2
abattus	2
aborde	2
absolus	2
abusé	2
accablée	2
acceptant	2
accepté	2
accompagné	2
accordé	2
Accordez	2
Achève	2
achevée	2
achèvera	2
admet	2
adorait	2
Adore	2
affaiblit	2
affligé	2
affranchir	2
affronte	2
agité	2
aient	2
aigrit	2
aimai	2
Aime	2
aimerait	2
aimés	2
aimiez	2
Ajoute	2
ajuste	2
alarme	2
alluma	2
amollir	2
amortir	2
anime	2
apaise	2
apercevoir	2
aperçu	2
appartient	2
Appelez	2
applique	2
apprendrai	2
apprendrez	2
apprivoiser	2
approchez	2
arme	2
Arrêtez	2
assassiné	2
assemblés	2
assorties	2
assouvir	2
assurés	2
assurez	2
A-t	2
attachait	2
attachant	2
attaché	2
Attend	2
attendait	2
Attendant	2
attendrons	2
attendus	2
Auriez	2
avancez	2
aveugle	2
aveuglé	2
avisez	2
Avoir	2
Avouez	2
Ayez	2
ayons	2
balancé	2
bannissez	2
blâmais	2
blessent	2
briguent	2
brille	2
Brisons	2
brûlait	2
cajolée	2
captivé	2
captiver	2
caresse	2
causé	2
Causer	2
censurer	2
Cesse	2
Change	2
changeons	2
changera	2
changés	2
Chargé	2
charmait	2
cherchais	2
cherché	2
cherchez	2
cherchons	2
chérie	2
choisirai	2
Choisissez	2
Cloris	2
combattu	2
Comble	2
comblé	2
combler	2
Commencez	2
Comparez	2
comptez	2
conçois	2
conçu	2
condamner	2
conduisait	2
conduisez	2
confirmer	2
connaissant	2
connus	2
conquérir	2
conseille	2
consente	2
consenti	2
conservent	2
conservez	2
considère	2
Considérez	2
consulté	2
Contemple	2
contrefait	2
contribue	2
contribuer	2
convaincrait	2
converti	2
coule	2
coupé	2
courent	2
coûté	2
coûtera	2
coûterait	2
couvre	2
couvrir	2
Craignez	2
craignions	2
craindra	2
croie	2
croirait	2
croissait	2
crus	2
Daigne	2
danser	2
Danser	2
débite	2
débiter	2
décharger	2
déclare	2
décrire	2
dédaignez	2
dédie	2
dédira	2
dédis	2
Défais	2
défaite	2
défie	2
dégage	2
dégagé	2
déguisant	2
déguisée	2
déloger	2
Demande	2
Demandez	2
dénie	2
dénier	2
départ	2
départir	2
dépeindre	2
dépends	2
déploie	2
Dérobons	2
désabuse	2
désavoue	2
descendue	2
destine	2
destinés	2
détruire	2
devais	2
Devait	2
devancé	2
Devenez	2
deviendra	2
Devient	2
deviné	2
devins	2
devons	2
die	2
différant	2
Diminuer	2
dira	2
dirait	2
Dirons	2
disant	2
discourir	2
disiez	2
disons	2
disparaître	2
Dispose	2
Disposez	2
dissipe	2
dissiper	2
dissipés	2
divisé	2
Dois	2
Doivent	2
domine	2
donnait	2
Donnât	2
dors	2
doutée	2
douterais	2
doutes	2
dresse	2
dudit	2
due	2
dût	2
éblouit	2
éclaté	2
écouté	2
écoutés	2
écris	2
effacée	2
effacent	2
efforce	2
égala	2
égale	2
égaler	2
égorge	2
éloignant	2
éloignés	2
embarrasse	2
embarrassé	2
embraser	2
embrasse	2
embrouillait	2
empare	2
empêcha	2
empêchera	2
empêcheraient	2
empêchez	2
employé	2
emportez	2
émue	2
enchanté	2
enflé	2
engageait	2
engagée	2
enhardir	2
enhardit	2
enlevé	2
ennuyé	2
ennuyer	2
enrichir	2
entend	2
entende	2
entendez	2
entendrez	2
entendue	2
entrant	2
entreprends	2
entretienne	2
entretiennent	2
entretint	2
entrevoir	2
enviez	2
envoyer	2
épandu	2
Épargnez	2
épargnons	2
épouvante	2
éprise	2
éprouvé	2
espérais	2
espères	2
espérons	2
estimai	2
estimerai	2
établit	2
Étaient	2
éteigne	2
étions	2
étonnée	2
étouffé	2
étouffer	2
étrange	2
étudie	2
eussions	2
Eût	2
évanouir	2
exempter	2
expier	2
expire	2
expiré	2
expirer	2
exposant	2
exposez	2
exprime	2
extravaguer	2
fâchez	2
faisiez	2
Faisons	2
fallu	2
fassent	2
feignant	2
Feignez	2
Feins	2
fendre	2
feraient	2
feras	2
feront	2
fier	2
finie	2
Finissez	2
finit	2
Fit	2
flattant	2
fléchi	2
fondé	2
forçant	2
Forcer	2
formât	2
former	2
foudroie	2
fourni	2
frissonne	2
fui	2
Fût	2
gager	2
gagnés	2
gardé	2
gardée	2
gardent	2
garderai	2
gêner	2
glisse	2
goûte	2
goûté	2
guider	2
hasarde	2
hâte	2
hier	2
honore	2
ignorée	2
ignorer	2
implorer	2
importunez	2
incommode	2
incommoder	2
inspire	2
instruire	2
intitulé	2
introduire	2
invite	2
irons	2
Jeter	2
Joindre	2
jouerai	2
jouez	2
Juge	2
juré	2
Juré	2
jurerais	2
Lâcher	2
laissait	2
Laissant	2
laissée	2
laissent	2
Laisser	2
lisant	2
lisez	2
livrer	2
lui	2
Lysandre	2
maltraité	2
mande	2
manquais	2
marqué	2
massacré	2
médire	2
mêle	2
menacé	2
mens	2
menti	2
méritais	2
messied	2
mettait	2
mettant	2
Mettez	2
mettra	2
mettrai	2
mettrait	2
mit	2
modérer	2
montant	2
monter	2
montrant	2
murmure	2
naissant	2
naît	2
naîtra	2
naîtront	2
Nomme	2
nuis	2
obéirai	2
obéis	2
obéisse	2
obligeant	2
obligerais	2
obstinerait	2
obtiendra	2
obtiens	2
occuper	2
offrent	2
Offrir	2
ordonné	2
oser	2
oseraient	2
Oses	2
ôté	2
oublie	2
oublierez	2
ouïr	2
ouverte	2
pâmer	2
parfait	2
parlait	2
parlera	2
parlerai	2
parlerons	2
parliez	2
part	2
partage	2
partager	2
parut	2
parût	2
passées	2
passes	2
peignez	2
Pensant	2
pensent	2
Pensez	2
perdais	2
perde	2
perdît	2
perdons	2
Perdre	2
Perds	2
perdus	2
permets	2
permettrai	2
persécute	2
Peux	2
piqué	2
Piqué	2
placées	2
plaira	2
plaisez	2
pleurer	2
plonge	2
ployer	2
plut	2
plût	2
portaient	2
porterait	2
portraits	2
posséda	2
possédé	2
possèdes	2
Pourrais	2
Pourrait	2
pousse	2
poussé	2
Pouvais	2
pratique	2
pratiqué	2
Pratiquez	2
précipiter	2
prenait	2
prendrait	2
prendrons	2
prenons	2
Prépare	2
préparée	2
préparent	2
préserve	2
préside	2
présumes	2
présumiez	2
prétendait	2
prétendez	2
prévenir	2
préviendra	2
prévu	2
produiront	2
produits	2
profaner	2
proposes	2
proteste	2
Puissent	2
punie	2
punis	2
purgeront	2
pussiez	2
Pût	2
quérir	2
quittai	2
quittais	2
quittant	2
quittée	2
quittons	2
Quittons	2
rabat	2
rabattre	2
railles	2
rallumé	2
rallumer	2
ramène	2
ramener	2
rappelé	2
rapprocher	2
rattraper	2
Ravi	2
ravit	2
rebuter	2
recevais	2
recevant	2
reçoivent	2
récompense	2
récompensés	2
reconnaissant	2
reconnue	2
reçue	2
recule	2
reçut	2
redoublés	2
refroidir	2
refusait	2
Refuser	2
Regardez	2
Registré	2
Réglons	2
rejeter	2
relevé	2
relever	2
relevez	2
remarquez	2
remédie	2
remettez	2
remplis	2
renaître	2
rencontrait	2
rencontrée	2
Rendent	2
rendît	2
rendrai	2
rendront	2
Rends	2
rendus	2
rentrent	2
renverser	2
répandu	2
répare	2
répliquer	2
répondent	2
répondra	2
reprenne	2
représenter	2
résoudrai	2
résoudrons	2
ressemblons	2
ressentir	2
resserre	2
retenue	2
retiennent	2
retirez	2
retomber	2
retourne	2
retrouver	2
réunir	2
réussi	2
Revenez	2
revenons	2
Revenons	2
Reviens	2
ri	2
riez	2
rompait	2
rompe	2
rompra	2
roule	2
Sachant	2
sachiez	2
saisi	2
Sait	2
saurons	2
savent	2
saviez	2
savons	2
secondant	2
seconde	2
séduire	2
séduit	2
semblant	2
semblent	2
sembles	2
semblez	2
sème	2
sentant	2
senti	2
sentirait	2
sépara	2
séparé	2
seraient	2
Serait	2
seroit	2
serons	2
servant	2
serve	2
servent	2
Servir	2
Songez	2
sonner	2
sortent	2
sortirez	2
souffrait	2
souffrira	2
souffrirait	2
souffrit	2
souhaité	2
soupçonnez	2
soupirez	2
sourire	2
soutenu	2
souvenez	2
souvienne	2
succomber	2
Suivant	2
suivent	2
suivrais	2
supplanté	2
supporter	2
surent	2
surpasse	2
surprenant	2
surprenez	2
Surpris	2
surprit	2
survienne	2
tâcher	2
tait	2
témoignât	2
témoigné	2
tendu	2
teniez	2
terminée	2
tira	2
tirons	2
tombé	2
touché	2
tourne	2
tournes	2
tracer	2
trahissais	2
trahisse	2
traitait	2
Traite	2
traiterais	2
traverse	2
Triomphe	2
troublée	2
troublent	2
troublés	2
trouva	2
trouvai	2
trouverais	2
trouverait	2
trouveriez	2
trouves	2
Trouvez	2
tué	2
tuer	2
Unissait	2
unit	2
Use	2
usez	2
vantez	2
vaudrait	2
vécut	2
venant	2
vend	2
vendez	2
Venez	2
Vengeons	2
veniez	2
verrait	2
verront	2
verser	2
veuilles	2
veulent	2
viendrait	2
vîmes	2
vînt	2
violé	2
vivant	2
vivent	2
vivons	2
vivrait	2
Voit	2
voudrai	2
voudraient	2
Vouloir	2
voyait	2
Vu	2
abaisse	1
abaissé	1
abaissent	1
abaisser	1
abaisserait	1
abandonnait	1
abandonnée	1
abat	1
abîmé	1
aborda	1
aboutissent	1
abréger	1
absolu	1
abusais	1
Abuse	1
accablaient	1
Accablé	1
Accabler	1
accablerait	1
accableront	1
accablés	1
accablez	1
acceptai	1
acceptait	1
Acceptant	1
Accepte	1
Accepter	1
accepterais	1
acceptés	1
Acceptez	1
accommodant	1
accommodée	1
accommodent	1
accompagnais	1
accompagnât	1
accompagnerai	1
accompli	1
accomplie	1
accomplis	1
accordent	1
Accorder	1
accordés	1
accourci	1
Accourez	1
accoutume	1
accroire	1
accroît	1
accroître	1
accru	1
accrue	1
accusais	1
accusent	1
accuserai	1
accusez	1
achète	1
acheter	1
achèterais	1
achètes	1
achèverez	1
achevez	1
Achevez	1
acquièrent	1
acquiert	1
acquittent	1
acquitteraient	1
admira	1
Admire	1
admirons	1
adorais	1
adores	1
adorions	1
adorons	1
adouci	1
Adoucir	1
adoucis	1
adoucit	1
Adoucit	1
Adresser	1
affaiblis	1
affaire	1
affectai	1
affecte	1
Affecte	1
affermi	1
affiné	1
affiner	1
afflige	1
affligeait	1
affligent	1
affranchirait	1
affronterai	1
agis	1
agissait	1
agissent	1
Agissez	1
agit	1
agitent	1
agrandir	1
agréerait	1
agréerez	1
aidant	1
aident	1
aidera	1
aideras	1
aidés	1
Aidez	1
aidons	1
aigris	1
aigrissez	1
aigrît	1
Aillent	1
aima	1
Aima	1
aimâtes	1
aiment	1
Aimer	1
aimera	1
aimeront	1
aime-t	1
aimions	1
Aimons	1
ajoutées	1
Ajouter	1
ajouterait	1
ajoutez	1
ajustés	1
alarmer	1
allaient	1
allée	1
alléger	1
Aller	1
allie	1
allonge	1
allumait	1
Allume	1
Allumé	1
allumée	1
amende	1
amendé	1
amener	1
Aminte	1
amorce	1
amusai	1
amusait	1
amusant	1
amusons	1
anéantir	1
animés	1
apaiserons	1
apaisez	1
Apaisez	1
aperçoit	1
aperçoivent	1
aplani	1
appartenait	1
appartiendra	1
appelait	1
appellerai	1
appliquer	1
apporta	1
apportai	1
Apporte	1
Apportent	1
apporte-t	1
appréhenderais	1
apprenait	1
apprendras	1
Apprendre	1
apprendront	1
Apprenez	1
apprenne	1
apprenons	1
apprêtent	1
apprit	1
approcha	1
Approchant	1
approcherait	1
approche-t	1
approuvent	1
appuyer	1
armant	1
armer	1
armerai	1
arraché	1
arrachée	1
arrachent	1
arrachez	1
Arrachez	1
arrêtais	1
arrêtant	1
arrêtée	1
arrêtés	1
arrivait	1
arrivé	1
arrivée	1
arrivés	1
assaillent	1
assailli	1
Assemble	1
assembler	1
asservie	1
Asservir	1
asservira	1
assiège	1
assièges	1
assista	1
assomme	1
assommer	1
assorti	1
assortie	1
assortis	1
assouvie	1
assujetti	1
assujettissais	1
assurai	1
assurant	1
Assure	1
Assuré	1
Assurée	1
attachée	1
Attacher	1
attachés	1
Attaquer	1
attaquez	1
attaquiez	1
atteindre	1
Atteint	1
attendaient	1
Attendez	1
attendons	1
Attendons	1
attendra	1
attendrait	1
attendri	1
attendrissait	1
attendrit	1
attendu	1
attendue	1
Attenté	1
atteste	1
attiré	1
attirerais	1
attirerait	1
attirez	1
attrapé	1
attrapée	1
attraper	1
attribué	1
attribuerez	1
attrister	1
attristez	1
augmentant	1
augmentera	1
Auraient	1
Aurez	1
aurois	1
autorisât	1
Autorisé	1
autorisent	1
autoriser	1
Avaient	1
Avait	1
avançant	1
Avance	1
avancé	1
avancée	1
avancent	1
avanceront	1
avances	1
avantagée	1
averti	1
avertie	1
Avertir	1
avertira	1
avertisse	1
aveugler	1
aveugles	1
avilir	1
avisa	1
avise	1
aviser	1
aviserons	1
avises	1
Avisez	1
avorté	1
avouée	1
avouera	1
avouerez	1
babiller	1
badiner	1
baignés	1
baissons	1
balance	1
balancée	1
balancent	1
Balancer	1
bander	1
Banni	1
bannira	1
Bannissant	1
Bannissez	1
bannit	1
bâtis	1
battant	1
battent	1
battez	1
battîtes	1
bénirais	1
berner	1
bigarré	1
Blâme	1
blâmerait	1
blâmes	1
blâmez	1
blanchie	1
blasphème	1
blessant	1
blesser	1
blessés	1
bornée	1
borner	1
bornera	1
bouillonne	1
branler	1
bravé	1
braverons	1
bricola	1
brigande	1
brigues	1
brillait	1
briller	1
Brise	1
brisera	1
brisez	1
brisons	1
brouilla	1
brouillait	1
brouille	1
brouillent	1
bruire	1
brûlais	1
Brûler	1
brûlerais	1
brûles	1
brûlez	1
but	1
cachais	1
cachait	1
cachent	1
cacherais	1
caches	1
Cachez	1
cachons	1
cajole-t	1
Calicut	1
calmer	1
calmez	1
calomnier	1
captivait	1
captive	1
captivent	1
captiverait	1
Caressé	1
carré	1
Cassez	1
causée	1
causera	1
causes	1
causions	1
cédait	1
cédée	1
céderont	1
cédez	1
Cédons	1
ceignent	1
ceint	1
cela	1
celé	1
cessant	1
cessera	1
chanceler	1
chancelle	1
changea	1
Changeai	1
Changeant	1
changent	1
changerai	1
changerait	1
changeras	1
changes	1
Changez	1
changions	1
Chante	1
charge	1
chargeai	1
chargeant	1
Chargeons	1
charmant	1
charment	1
charmera	1
chassera	1
chasserait	1
chasses	1
chassez	1
châtier	1
chatouille	1
cherchaient	1
cherchant	1
cherchent	1
Cherchent	1
chercherai	1
Cherches	1
cherchiez	1
chéri	1
chérissais	1
chérissons	1
choisie	1
choisirait	1
Choisirait	1
choisisse	1
choisissez	1
choisît	1
choqué	1
choquer	1
chose	1
chu	1
Cléandre	1
Clore	1
close	1
cocher	1
collationnées	1
colore	1
coloré	1
colorer	1
comaedia	1
combat	1
Combat	1
combats	1
combattues	1
comblez	1
commandait	1
commençaient	1
Commence	1
commencer	1
commencerai	1
commet	1
Commet	1
commets	1
commettre	1
commis	1
commise	1
compatir	1
compatisse	1
complaire	1
composées	1
composons	1
comprends	1
compte	1
comptent	1
compterait	1
compte-t	1
concerter	1
concevez	1
Concevoir	1
conclue	1
Conçoive	1
conçue	1
conçus	1
conçût	1
condamnais	1
condamnée	1
Conduit	1
confériez	1
confessé	1
confier	1
confondent	1
confonds	1
confondu	1
confondus	1
conforter	1
conjurer	1
Connais	1
connaissaient	1
Connaissez	1
Connaît	1
connaîtras	1
connues	1
connut	1
conquête	1
conquis	1
consacrent	1
conseillé	1
conseillez	1
consentant	1
consentez	1
consentis	1
consentît	1
conserva	1
conservait	1
conservé	1
conservée	1
Conservent	1
Conserver	1
conservera	1
conserverez	1
conserveront	1
considérais	1
considérait	1
considérée	1
consiste	1
consolais	1
consolait	1
Consolerait	1
consoles	1
Conspirent	1
consulter	1
consultez	1
consultons	1
consumé	1
contais	1
Conte	1
contenant	1
content	1
contentai	1
Contente	1
contenterai	1
contentez	1
Contentez	1
CONTENUS	1
contesté	1
contester	1
contestez	1
contiez	1
Continuer	1
continuez	1
Continuez	1
continuons	1
contraignait	1
contraignit	1
Contraindre	1
contre	1
contrefaire	1
Contrefait	1
Convaincus	1
convertie	1
convertir	1
conviés	1
corrigé	1
corriger	1
corrompu	1
couche	1
couché	1
coucher	1
coucherai	1
coulait	1
coulées	1
coulent	1
coupés	1
courais	1
courait	1
couronner	1
courons	1
courrais	1
courtise	1
courut	1
Courut	1
cousu	1
coûtait	1
coûtât	1
coûtera-t	1
couvrons	1
cracher	1
craignais	1
Craignais	1
Craignant	1
craignons	1
craindrais	1
Craint	1
creuse	1
criez	1
criois	1
Croirais	1
croiras	1
croirez	1
croiriez	1
croissant	1
croissez	1
Croissez	1
croîtrez	1
crotter	1
croyaient	1
croyait	1
crue	1
crut	1
crût	1
cueillir	1
cultiver	1
daigné	1
daignent	1
daignez	1
damné	1
danse	1
débarrasser	1
débattre	1
débattu	1
débauche	1
débauché	1
débaucher	1
Débilite	1
déborde	1
déchargeait	1
décharné	1
décharnés	1
déchirée	1
décidée	1
décider	1
déclara	1
Déclaré	1
déclarée	1
décoché	1
déçoit	1
déconfit	1
découvrant	1
Découvre	1
découvrent	1
Découvrent	1
découvrirent	1
découvrons	1
décrie	1
décrié	1
décriée	1
décriés	1
décris	1
décrite	1
déçus	1
dédaignai	1
dédaignée	1
dédaignes	1
défaillent	1
défais	1
Défait	1
Défaites	1
défende	1
défendra	1
défendrait	1
défendras	1
défendu	1
défère	1
défier	1
dégagée	1
Dégager	1
déglace	1
Dégoûté	1
dégoûtée	1
dégrader	1
Déguisé	1
déguisés	1
déguisez	1
déguisons	1
délaissée	1
délasser	1
Délasser	1
délivré	1
délivrée	1
demanda	1
demandais	1
demandant	1
Demander	1
démêle	1
Démentir	1
demeurées	1
demeurent	1
Demeurer	1
demeurera	1
demeurerait	1
Demeurerait	1
demeures	1
demeurez	1
Demeurez	1
demeurons	1
démonter	1
dénieras	1
dénoncé	1
Dépêche	1
dépêchons	1
Dépêchons	1
dépeins	1
dépeint	1
Dépeint	1
dépendait	1
dépendent	1
dépendrait	1
dépeuple	1
déplairait	1
déplais	1
Déploie	1
déplu	1
Dépourvu	1
dépourvue	1
déréglée	1
dérobait	1
dérobée	1
dérobent	1
déroberont	1
dérobés	1
dérobons	1
désabusé	1
désabusée	1
désapprouvez	1
désarme	1
désavouait	1
désavouent	1
Désavouer	1
descendant	1
descendirent	1
descends	1
descendu	1
descendues	1
désespéré	1
désintéressé	1
désintéressée	1
désiré	1
désirer	1
désirerait	1
désoblige	1
désolé	1
désolés	1
Dessillez	1
destinée	1
Destinez	1
désunies	1
désunir	1
Détacher	1
déteste	1
détourne	1
détromperas	1
détruites	1
devenez	1
Devenir	1
devenus	1
Deviendrais	1
deviendrait	1
Deviendrait	1
devienne	1
Deviens	1
devinait	1
Deviner	1
Devinerais	1
devines	1
devinez	1
Devinez	1
devint	1
devînt	1
devions	1
dévoilé	1
dévore	1
dévoré	1
Dévoré	1
devrez	1
diffames	1
diffamez	1
différaient	1
différé	1
diffères	1
différez	1
Différez	1
diminuer	1
dira-t	1
direz	1
Disait	1
Discorde	1
discourons	1
discours	1
discourt	1
disions	1
Disons	1
Disparaît	1
disparu	1
Dispense	1
dispensent	1
Dispensent	1
dispenserez	1
disposée	1
disposerais	1
disposes	1
Disputent	1
disputez	1
disputons	1
Dissimule	1
dissimulé	1
dissimulerai	1
dissimulons	1
Dissipe	1
Dissipes	1
distinguer	1
distribuer	1
diverti	1
Divertir	1
divertira	1
divertirait	1
Divertissez	1
divisèrent	1
divorce	1
doives	1
domptai	1
domptée	1
domptés	1
donnais	1
donnasse	1
donnassent	1
donnât	1
DONNÉ	1
données	1
Donnent	1
Donnera	1
donnerai	1
donneraient	1
donnerait	1
donnèrent	1
Donnèrent	1
donnerons	1
donniez	1
dort	1
doublé	1
doutaient	1
doutais	1
dupé	1
dura	1
duré	1
durent	1
durera	1
dusse	1
dussé	1
dussiez	1
Dussiez	1
Dût	1
ébahis	1
ébloui	1
éblouie	1
éblouissant	1
éblouissent	1
ébranlerait	1
écarté	1
écartée	1
écarter	1
échange	1
échappée	1
échappées	1
échappera	1
échappèrent	1
échappez	1
Échauffent	1
échoir	1
éclaircirai	1
Éclairciront	1
Éclaircis	1
éclaircissons	1
éclaircit	1
éclaire	1
éclairés	1
écouler	1
écoutais	1
écoutait	1
Écoute	1
écouterai	1
écouteront	1
écoutons	1
écraser	1
Écrasons	1
écrites	1
écrivais	1
écrivent	1
écume	1
effaçait	1
effacé	1
effacerai	1
effaçons	1
effaroucher	1
effectue	1
effectuer	1
efforcent	1
égalait	1
égalât	1
égalent	1
égaré	1
égayez	1
élancent	1
élargi	1
élargis	1
élevât	1
élève	1
Élève	1
élevé	1
élèveront	1
élevés	1
éloigna	1
éloigne	1
éloignez	1
Éloignez	1
embarras	1
embarrassée	1
embarrassés	1
embrase	1
embrasé	1
embrassez	1
embrouille	1
embrouilles	1
émeut	1
Empêchant	1
empêchât	1
Empêche	1
empêchent	1
empêcherai	1
empêchiez	1
Emploie	1
emploient	1
emploieriez	1
employaient	1
Employez	1
emportent	1
emportera	1
emportes	1
emportiez	1
empreints	1
emprunte	1
emprunter	1
Empruntez	1
émut	1
enchaîné	1
enchaînée	1
enchaîner	1
enchérit	1
endormi	1
endormie	1
endurait	1
endurant	1
endurci	1
endurcit	1
enduré	1
endurera	1
enfante	1
enfermait	1
enfermant	1
enferres	1
enflammée	1
enflammés	1
Enflé	1
enfler	1
Enflerait	1
enflés	1
enfoncer	1
enfuis	1
enfuit	1
enfuyait	1
enfuyant	1
Engage	1
Engageant	1
engages	1
engagez	1
engendrer	1
engloutir	1
engloutit	1
enhardira	1
enhardis	1
enhardisse	1
Enhardit	1
enlevée	1
enlevez	1
ennuyais	1
Ennuyé	1
enrage	1
enrageait	1
enrhumer	1
enrichi	1
enrichie	1
enrichit	1
Enrichit	1
enseveli	1
entendais	1
Entendant	1
entendent	1
entendiez	1
entendis	1
entendît	1
entendoit	1
entendrais	1
entendues	1
entr'appeler	1
entr'entendez	1
entr'ouverte	1
entr'ouvre	1
entraient	1
entrât	1
entre-choquer	1
entre-connaît	1
entreconnaître	1
entre-détruire	1
entre-dit	1
entre-donner	1
entrées	1
entrent	1
entre-payons	1
entreprend	1
entreprendrais	1
entreprendrait	1
entrepris	1
entreprise	1
Entrer	1
entre-regardaient	1
entre-suivent	1
entre-suivre	1
Entretenait	1
entretenue	1
entretiendra	1
entretiendrai	1
entretins	1
enverrai	1
enverrais	1
enviais	1
envie	1
envier	1
envoler	1
envoles	1
envoyai	1
envoyant	1
Envoyer	1
Envoyez	1
épanche	1
épandre	1
épargna	1
épargné	1
épargnera	1
épargnerons	1
éperdue	1
épions	1
épousant	1
épousée	1
épousera	1
épouserai	1
épouvanté	1
éprit	1
éprouvant	1
éprouvas	1
Éprouver	1
épuisé	1
épuisent	1
épuiser	1
érige	1
érigeras	1
escroques	1
espérant	1
Espérez	1
essaie	1
Essaie	1
essayer	1
essayez	1
Essayez	1
Essayons	1
estimais	1
Estime	1
estimé	1
estimée	1
estimerais	1
estimiez	1
estropie	1
estropié	1
établi	1
établir	1
Établir	1
établis	1
étale	1
étalent	1
éteignant	1
Éteignez	1
éteindra	1
Éteint	1
éteinte	1
éteints	1
étendrai	1
étendre	1
éternisent	1
Êtes	1
étoient	1
étonnent	1
étonnez	1
étouffa	1
étouffait	1
étouffant	1
étouffera	1
étoufferai	1
étoufferaient	1
Étouffez	1
étourdis	1
étourdissez	1
étourdit	1
étrangle	1
étrille	1
étrillez	1
étudiai	1
étudié	1
eue	1
eûmes	1
Eus	1
eusses	1
évader	1
éveillé	1
éveillée	1
éveiller	1
éveillés	1
éventé	1
évertue	1
évité	1
évitent	1
Évitez	1
évitons	1
Évitons	1
évoquer	1
Examinant	1
Examiner	1
examinerai	1
exaucés	1
exceptez	1
excita	1
excusera-t	1
exécute	1
exerçait	1
exerçant	1
Exerce	1
Exercer	1
exhaler	1
exiger	1
exilé	1
expédie	1
expirée	1
Explique	1
expliquent	1
expliquions	1
exploitez	1
exposa	1
exposera	1
exposes	1
exposés	1
expose-t	1
exprimée	1
exprimeraient	1
exprimeront	1
exprimés	1
extermine	1
extrait	1
Fâche	1
fâchera	1
faisaient	1
Faisait	1
fallut	1
Falsifié	1
falsifier	1
fane	1
farde	1
Fasse	1
Fassent	1
fasses	1
fassiez	1
faudra-t	1
Faudra-t	1
fausser	1
faussez	1
Favorisant	1
favorisé	1
favorisée	1
favorisés	1
feignaient	1
feignait	1
feigne	1
feignent	1
feignez	1
feignions	1
feindrai	1
Feindre	1
feindrons	1
feinte	1
fendîtes	1
Ferait	1
Ferez	1
ferions	1
ferrer	1
fiant	1
fie	1
fiez	1
figure	1
Figure	1
Figurez	1
filaient	1
fîmes	1
finirai	1
finis	1
finissent	1
firent	1
fisse	1
Fît	1
fîtes	1
flattait	1
Flatte	1
flatté	1
Flatter	1
Florilame	1
Florise	1
fondant	1
fonder	1
fondés	1
fondrait	1
fondre	1
fondront	1
força	1
forcée	1
forcène	1
Forcener	1
forcent	1
forces	1
forcés	1
forcez	1
forma	1
formant	1
Formez	1
formons	1
fortifie	1
foudroyés	1
fouetter	1
fouillant	1
fournira	1
fourniront	1
fournissait	1
fournit	1
fracasser	1
frappant	1
frappe	1
frémi	1
frémis	1
froncée	1
frotté	1
frustré	1
frustres	1
fuira	1
fuirez	1
Fuis	1
Fuit	1
fumée	1
fûmes	1
funeste	1
Fussent	1
fussiez	1
fuyant	1
Fuyez	1
Fuyons	1
gage	1
gagnait	1
gagnée	1
gagnera	1
Gagnera	1
gagnerait	1
gagnerons	1
gagnons	1
garant	1
garda	1
garderions	1
garderont	1
gardes	1
Gardez	1
Gardons	1
garnies	1
gauchir	1
gît	1
glacé	1
gonflés	1
goûta	1
goûtais	1
goûtait	1
goûter	1
gouverne	1
Gouverne	1
gouverné	1
gouvernez	1
gravés	1
gronde	1
grossis	1
Grossissant	1
Guérir	1
guériraient	1
guérisse	1
guidé	1
guidée	1
habille	1
haïrais	1
haïssent	1
Hait	1
harcelez	1
hasarda	1
hasardait	1
hasardé	1
hasardent	1
Hasardez	1
hâtés	1
hâtez	1
Hâtez	1
hélas	1
hérité	1
hurler	1
idolâtre	1
Idolâtre	1
ignorât	1
ignorerai	1
ignoriez	1
imaginé	1
imaginée	1
imagineraient	1
imagines	1
imitée	1
Immolant	1
Implore	1
importuné	1
importunée	1
imposez	1
imprimait	1
imprime	1
imprimé	1
Impute	1
imputer	1
imputerez	1
imputes	1
incommodé	1
incommodons	1
informe	1
informez	1
inquiète	1
inquiété	1
inquiéter	1
inscrire	1
insistez	1
inspirant	1
inspirent	1
inspirer	1
installer	1
instruis	1
instruisait	1
instruisent	1
instruite	1
interdiriez	1
interdite	1
intéressée	1
interrompait	1
interrompît	1
interrompraient	1
intitulée	1
intrique	1
introduis	1
introduisait	1
invente	1
Invente	1
inventé	1
inventée	1
iraient	1
irais	1
Iront	1
Irrite	1
irrités	1
jaser	1
jetait	1
jetant	1
jetez	1
jettent	1
Jetterai	1
joignais	1
Joignez	1
Joignit	1
joins	1
joint	1
Joint	1
jointes	1
jouait	1
jouant	1
Joue	1
joué	1
jouent	1
jouënt	1
jouera	1
jouerais	1
jouerons	1
jouirez	1
jugé	1
jugea	1
jugeait	1
jugeât	1
Juger	1
jugerai	1
juges	1
Jugiez	1
juraient	1
jurait	1
Jure	1
Jurer	1
justifie	1
Justifier	1
lâche	1
lairrais	1
laissaient	1
laissât	1
laissées	1
laisserai	1
laissiez	1
lance	1
lancer	1
langui	1
lassez	1
lavé	1
lettre	1
lève	1
levé	1
lever	1
liées	1
lirez	1
lisait	1
lisent	1
Lisez	1
livra	1
loge	1
logeait	1
logés	1
logez	1
louant	1
loue	1
Lyse	1
M	1
maintenant	1
maintiendrais	1
maintient	1
maltraitée	1
maltraiterai	1
mander	1
mandez	1
mandons	1
Mandons	1
manquant	1
manquât	1
Manque	1
Manquent	1
manquerai	1
Manquerait	1
manquerez	1
manquerions	1
Manquerois	1
manquerons	1
Manque-t	1
manquez	1
manquions	1
manquons	1
marchaient	1
marche	1
marché	1
marchent	1
Marchons	1
marie	1
marié	1
mariée	1
marquait	1
masqué	1
massacrait	1
massacre	1
massacrer	1
Maudissant	1
méconnaître	1
mécontenter	1
médite	1
mêlaient	1
mêlais	1
mêlée	1
mêlent	1
Mêler	1
mêlera	1
Mêlés	1
Mélite	1
mena	1
menacer	1
menacez	1
ménageât	1
ménagée	1
ménagés	1
ménagez	1
mendiaient	1
mendier	1
mené	1
mener	1
mentiez	1
mentirez	1
méprisant	1
méprises	1
méprisés	1
méprisez	1
Méritai	1
méritait	1
Méritait	1
Mérite	1
méritée	1
Mériter	1
mériterais	1
mériterez	1
mérites	1
mérités	1
mésestimer	1
Messeoir	1
mesurât	1
mesurée	1
Mets	1
Mettons	1
Mettrez	1
meurent	1
mît	1
mlaisse	1
modérez	1
monte	1
monté	1
montent	1
montés	1
montra	1
montraient	1
montrais	1
montrait	1
montrera	1
montrerais	1
montrerait	1
montrerez	1
montres	1
Montrez	1
moquant	1
moqué	1
moques	1
moquez	1
mordre	1
morts	1
mouraient	1
mourais	1
Mourez	1
mourois	1
mourrai	1
mourrait	1
mourras	1
mourut	1
moyenner	1
murmurait	1
murmurent	1
Mus	1
mutine	1
nager	1
naisse	1
naîtrait	1
naquit	1
né	1
nécessité	1
négligeant	1
négligée	1
négligées	1
Négliger	1
négligera	1
négligerais	1
nie	1
nier	1
no	1
noircir	1
nomma	1
nommais	1
nommant	1
Nommez	1
nourrie	1
nourrir	1
nourrissaient	1
nourrissent	1
nourrit	1
noyer	1
nuirait	1
nuisaient	1
nuise	1
nuisons	1
O	1
obéie	1
Obéir	1
obéissent	1
obéit	1
Oblige	1
obligée	1
obligerait	1
obligés	1
Obligés	1
obscurcirait	1
obsédée	1
observe	1
observée	1
observés	1
obstinais	1
obstiner	1
obstines	1
obtenu	1
obtiendras	1
obtiendrez	1
Obtiennent	1
obtint	1
occupe	1
occupé	1
occupée	1
offensait	1
offensée	1
offensera	1
offensés	1
offrais	1
offrant	1
offres	1
offriez	1
offrira	1
offrirait	1
offris	1
opposai	1
Oppose	1
opposé	1
opposent	1
opposés	1
Opposez	1
ordonner	1
osa	1
osasse	1
osât	1
osera	1
Oserais	1
oseront	1
Osez	1
osiez	1
ôtera	1
ôtes	1
Otez	1
Ôtez	1
oubliait	1
oubliant	1
Oubliant	1
Oublions	1
ouïs	1
outrageais	1
outrecuidé	1
ouvert	1
Ouvrez	1
ouvrira	1
ouvrirons	1
ouvrit	1
Ouvrons	1
oy	1
Oyons	1
paie	1
paiera	1
pâlis	1
pâma	1
pâmée	1
paraîtra	1
Paraîtra	1
pardonnent	1
pardonneriez	1
pardonnons	1
paré	1
parjurée	1
parjurer	1
Parlait	1
Parler	1
parlerait	1
Parleras	1
parle-t	1
Parle-t	1
paroître	1
partagé	1
partagées	1
partagent	1
partagez	1
partaient	1
partait	1
partent	1
partez	1
partie	1
partiez	1
partirons	1
partis	1
partit	1
passa	1
Passant	1
passent	1
passerais	1
Passez	1
passionné	1
passions	1
payais	1
payée	1
pèche	1
peindront	1
peine	1
Peins	1
Peint	1
penche	1
penché	1
Pendant	1
pendu	1
pénétrât	1
pénètres	1
Pensa	1
pensant	1
Penser	1
penserais	1
penseriez	1
Penseriez	1
pensons	1
Percer	1
percera	1
perceront	1
Perdez	1
perdrez	1
périe	1
périrai	1
périrait	1
périsse	1
permettait	1
permettons	1
Permettra	1
permise	1
persécuté	1
persécutée	1
persévère	1
Persiste	1
persisté	1
persisteriez	1
Persiste-t	1
pervertir	1
pèsent	1
pillé	1
pipé	1
piquât	1
piquez	1
plaignant	1
plaigne	1
plaignons	1
plaindrai	1
Plaindre	1
Plaira	1
plairais	1
plairait	1
plaisaient	1
Plaisant	1
plaise	1
Plaisez	1
plâtrer	1
plége	1
Pleirante	1
pleurai	1
pleurais	1
pleure	1
pleuré	1
pleureras	1
pleuve	1
plu	1
poignardant	1
polie	1
porta	1
portent	1
Porter	1
porteraient	1
porteras	1
portes	1
portés	1
portez	1
Portez	1
Portrait	1
posé	1
Posé	1
possédaient	1
possédais	1
possédait	1
Pourra	1
Pourriez	1
pourrions	1
pourront	1
poursuis	1
poursuivie	1
Poursuivons	1
poursuivre	1
poursuivront	1
Pousse	1
poussent	1
Pousser	1
poussés	1
Pouvant	1
pouvons	1
pratiquaient	1
précéda	1
précédé	1
précipitant	1
précipite	1
précipitez	1
Préférez	1
Prenaient	1
Prend	1
prendrais	1
Prendrait	1
prendras	1
Prendre	1
Prenez	1
preniez	1
Prenne	1
préoccupée	1
préparez	1
Préparez	1
prescris	1
prescrite	1
Présenter	1
présentez	1
présentons	1
pressai	1
pressait	1
pressée	1
pressent	1
présumé	1
Présumez	1
prêtai	1
prêtait	1
prêté	1
prétendent	1
prétendes	1
Prêter	1
prêtez	1
prévenu	1
Préviendra	1
préviendrai	1
préviendrais	1
prévienne	1
prévient	1
prévoyant	1
priai	1
primé	1
prirent	1
prisez	1
prisse	1
prîtes	1
privant	1
privé	1
privée	1
Priver	1
privez	1
procède	1
procurant	1
procure	1
procurer	1
prodigue	1
prodiguer	1
produira	1
produis	1
produisaient	1
produise	1
produisent	1
Produisent	1
projeté	1
prolonger	1
promettait	1
promettent	1
promettez	1
promises	1
Prononçant	1
prononce	1
proportionné	1
proportionnés	1
proposé	1
proposent	1
proposer	1
protéger	1
protesté	1
provenaient	1
publiant	1
publie	1
publiés	1
Puissé	1
Puisse-t	1
puissiez	1
Puissiez	1
puissions	1
punies	1
Punir	1
punira	1
puniras	1
punissant	1
punissez	1
Punissez	1
purge	1
purgez	1
Purgez	1
pusse	1
pussent	1
querellons	1
querir	1
quitta	1
quittés	1
quittiez	1
rabaisse	1
Rabattez	1
raccommoder	1
raccommodés	1
raccourcit	1
racheter	1
raconte	1
raconter	1
raffiner	1
raillais	1
raille	1
raillé	1
railler	1
Railler	1
raillons	1
raisonner	1
ralentir	1
Rallumait	1
rallume	1
rallumèrent	1
ramenât	1
rangeaient	1
ranime	1
ranimés	1
rapaiser	1
Rappeler	1
rappellent	1
rapportera	1
rapproche	1
rase	1
Rasé	1
rassasie	1
Rassasier	1
rassemblé	1
rassis	1
rassures	1
ravale	1
ravalé	1
ravalés	1
ravis	1
ravissait	1
Ravissent	1
rebelle	1
rebrousser	1
recevaient	1
Recevez	1
Recevoir	1
recevons	1
recevra	1
recevrait	1
recevront	1
recherchez	1
récité	1
Reçoive	1
recommencer	1
réconcilie	1
reconduire	1
reconduise	1
reconduit	1
Reconnaissez	1
reconnaît	1
Reconnaître	1
reconnaîtrez	1
recoure	1
recourir	1
recouvré	1
recueille	1
recueillît	1
reçues	1
Reculent	1
reculer	1
recules	1
redemande	1
redis	1
redit	1
Redites	1
Redonne	1
redonné	1
redonner	1
redonnez	1
Redouble	1
redoublent	1
redoublerait	1
redoubles	1
redoublez	1
redoutez	1
réduise	1
refaire	1
réfléchir	1
refroidisse	1
refuit	1
Refusaient	1
refusant	1
refusé	1
refusées	1
refusera	1
refuserez	1
refusiez	1
regagna	1
regagné	1
régale	1
régaler	1
regardant	1
regardez	1
régit	1
réglât	1
règlent	1
Règlent	1
réglerai	1
règles	1
Régnant	1
Règne	1
règnent	1
regrette	1
Regrette	1
Rejetant	1
rejetée	1
Rejeter	1
Rejette	1
Rejoignons	1
relâche	1
Relâche	1
relâchée	1
relevassiez	1
relève	1
relevés	1
Remarque	1
remarquer	1
remarqueraient	1
remarques	1
Remarquez	1
rembraser	1
remercier	1
remet	1
Remets	1
Remettez	1
Remettons	1
remettra	1
Remettra	1
remettrons	1
remettront	1
remeublé	1
remontrer	1
rempli	1
remplirait	1
remplissait	1
remplit	1
remporte	1
remporté	1
remportés	1
renaissant	1
renaît	1
Renaît	1
rencontrerons	1
rencontreront	1
rencontrés	1
rencontrez	1
Rend	1
rendaient	1
rendais	1
rendait	1
Rendait	1
rendiez	1
rendis	1
rendraient	1
rendrais	1
Rendrait	1
Rendre	1
rengager	1
Renouer	1
renouerons	1
renoueront	1
rentrant	1
rentrâtes	1
rentrerez	1
rentrez	1
rentrons	1
renversé	1
renversée	1
renvoyé	1
renvoyer	1
repaissait	1
répandaient	1
répands	1
répandues	1
répandus	1
Répare	1
réparé	1
réparent	1
repart	1
repartir	1
repassant	1
répète	1
répliquez	1
répondant	1
répondrai	1
Répondraient	1
répondu	1
repose	1
reposer	1
reposez	1
Reposez	1
repoussé	1
repoussez	1
Reprend	1
reprendrait	1
Reprendre	1
reprends	1
Reprends	1
reprennent	1
reprenons	1
représentaient	1
représente	1
représentent	1
représentés	1
reprierai	1
repris	1
reprit	1
reprochait	1
repu	1
répute	1
réserve	1
réservé	1
Réservez	1
résolut	1
résolvant	1
Résolvez	1
résolvons	1
résoudra	1
Résous	1
respecte	1
respectes	1
respirer	1
ressemblait	1
ressembler	1
ressembles	1
resserrant	1
ressort	1
ressouvenir	1
ressouviens	1
ressuscite	1
ressuscité	1
ressuscitez	1
rester	1
reste-t	1
restitue	1
Retardait	1
Retarde	1
retardent	1
Retarder	1
retardons	1
retenant	1
retenez	1
retenu	1
retenus	1
Retiens	1
retînt	1
retirais	1
retirant	1
Retirons	1
retombent	1
retournant	1
retournez	1
Retournons	1
retracé	1
retracer	1
retranche	1
retranché	1
rétrécit	1
retrouvant	1
retrouve	1
Réunir	1
réussiront	1
réussissent	1
rêvais	1
revanche	1
rêvant	1
rêvé	1
réveillant	1
Réveille	1
revenue	1
reverras	1
reverrez	1
revêtir	1
rêvez	1
reviendra	1
reviendrons	1
revienne	1
Revint	1
revoie	1
revois	1
révolté	1
révolterais	1
révoquer	1
ridé	1
rime	1
rirai	1
rirais	1
rirons	1
risque	1
rocher	1
roidis	1
roidit	1
rompant	1
rompez	1
rompiez	1
rompit	1
Romprait	1
Rompre	1
romprions	1
rongeant	1
rongent	1
ronger	1
Ruinant	1
ruinez	1
rusée	1
ruser	1
saccager	1
sachons	1
sacrifie	1
sacrifier	1
sai	1
Saint-Innocent	1
Sais	1
saisir	1
saisis	1
Saisit	1
saluer	1
satisfaites	1
Satisfaites	1
satisfaits	1
Saura	1
Saurons	1
Saute	1
Sauve	1
Sauvé	1
sauvés	1
sauvez	1
sauvons	1
Sauvons	1
Savez	1
Savoir	1
sècherais	1
séchés	1
secondait	1
secondent	1
seconderait	1
secondez	1
secouer	1
secourez	1
secouru	1
séduisent	1
sembleraient	1
sembleront	1
Sème	1
semée	1
semer	1
sentirais	1
sentis	1
sentisse	1
seoir	1
séparais	1
Séparer	1
séparons	1
Séparons	1
Sera	1
Seriez	1
serions	1
serre	1
serrer	1
Sers	1
Sert	1
servais	1
servait	1
servez	1
serviraient	1
serviront	1
Serviront	1
servons	1
sied	1
sifflée	1
signaler	1
signifie	1
Sihnifie	1
Soient	1
Sois	1
sollicitée	1
sondé	1
sonderai	1
Songe	1
songeant	1
songent	1
songeons	1
Sortant	1
sorte	1
sortiez	1
sortira	1
sortiras	1
sortis	1
sortit	1
Sortons	1
soufferts	1
souffrant	1
souffrent	1
Souffrent	1
souffres	1
souffrirais	1
Souffrirais	1
souffriras	1
souffrirons	1
souhaitais	1
Souhaitent	1
souhaites	1
souille	1
souiller	1
souillés	1
soulagé	1
Soulève	1
soûlez	1
soumet	1
soumette	1
soumettre	1
soumis	1
soupçonnait	1
soupé	1
souper	1
souperons	1
Soupirait	1
souscrirez	1
souscrit	1
soustraire	1
Soutenant	1
soutenez	1
soutenir	1
soutiendront	1
soutiens	1
Soutiens	1
Souvenez	1
spécifier	1
stincs	1
suasions	1
suborné	1
subornes	1
subornons	1
succédé	1
succéder	1
succomba	1
succombé	1
suffiront	1
suffoque	1
suggère	1
suivaient	1
suivait	1
suive	1
Suive	1
Suivent	1
suives	1
Suivez	1
suivies	1
suivirent	1
suivit	1
Suivons	1
Suivrais	1
suivrez	1
sûmes	1
supplée	1
suppléer	1
Suppléera	1
suppléerait	1
supplié	1
supplierai	1
supposé	1
SUPPOSÉE	1
supposées	1
supprimer	1
supprimera	1
supprimes	1
surmontant	1
surmonte	1
surmonté	1
surmontés	1
surprenne	1
Surprise	1
surseoir	1
survenue	1
suspendant	1
suspendu	1
suspendus	1
Sut	1
sûtes	1
tâchait	1
Tâche	1
tâchent	1
tâcherons	1
tâchons	1
Tâchons	1
tailler	1
tairai	1
tairas	1
taisant	1
tardait	1
tardez	1
Tardez	1
tarissez	1
témoignant	1
Témoigne	1
témoignée	1
Témoignent	1
témoignez	1
témoigniez	1
tempêtez	1
tenais	1
tenant	1
Tenant	1
tendaient	1
tendent	1
tendis	1
tenions	1
Tenir	1
tenons	1
tente	1
tenues	1
tenus	1
terminé	1
terminent	1
terminés	1
terni	1
ternir	1
tiendrons	1
Tient	1
tint	1
tînt	1
tirai	1
tirait	1
tirée	1
tirent	1
Tirons	1
Tisiphone	1
Tomba	1
tombant	1
tomberons	1
tombez	1
tombons	1
torture	1
toucha	1
touchait	1
touchant	1
touchée	1
touchons	1
tourmente	1
tourmenter	1
tournait	1
tournant	1
Tournât	1
tourné	1
tournent	1
Tournent	1
tournera	1
tournez	1
Tournoyez	1
traduit	1
trafiqua	1
trahie	1
Trahir	1
trahira	1
trahirait	1
trahissant	1
traînaient	1
traîne	1
trait	1
traitassent	1
traites	1
traités	1
Traitez	1
Tranchent	1
trancherait	1
tranches	1
tranchez	1
transi	1
transporte	1
Transportent	1
travaille	1
travaillé	1
travailler	1
travaillez	1
traversais	1
traversé	1
traversés	1
trébucher	1
tremblai	1
tremblerait	1
tremblez	1
trempait	1
tremper	1
triomphé	1
triomphent	1
trompa	1
trompant	1
trompée	1
tromperais	1
trompez	1
troublé	1
troublèrent	1
trouvait	1
Trouvent	1
trouveras	1
tu	1
tuais	1
tuerais	1
tuez	1
Tyrannise	1
uni	1
unies	1
Unira	1
Unirait	1
uniront	1
unis	1
unissant	1
usait	1
usât	1
usé	1
User	1
usera	1
userais	1
useriez	1
usés	1
Usez	1
Usons	1
usurper	1
Vaincra	1
vaincrai	1
vainquit	1
valaient	1
Valent	1
valez	1
valiez	1
valus	1
valut	1
vantais	1
vantait	1
vanté	1
vaudront	1
Vaut	1
veilleras	1
venais	1
vendent	1
vendit	1
Vendit	1
vendît	1
vendrai	1
vendue	1
vengeait	1
vengeant	1
vengez	1
Vengez	1
Verra	1
verraient	1
Verrais	1
verra-t	1
veuillent	1
veuillez	1
Veulent	1
vidée	1
viderons	1
Viendra	1
viendras	1
viendra-t	1
viendrez	1
viendront	1
Viendront	1
viennes	1
vinrent	1
violer	1
virgule	1
visite	1
vive	1
vivez	1
vivra	1
vivrai	1
vivrais	1
voient	1
voisine	1
volaient	1
volant	1
volé	1
voles	1
voltige	1
Vomira	1
Voudraient	1
Voudrais	1
voudrois	1
Voulons	1
voulus	1
voulusse	1
voulusses	1
Voulut	1
voyagez	1
voyois	1
