word	F
est	1979
a	731
ai	523
fait	476
faire	426
faut	303
être	296
suis	269
voir	263
sont	239
veux	234
peut	230
dit	228
dire	226
ont	178
avez	172
avoir	148
doit	141
vois	139
sais	138
dis	137
veut	134
êtes	116
donne	110
prendre	108
donner	104
vient	104
aime	102
voulez	98
parler	97
ait	91
soit	89
vouloir	84
mettre	83
était	82
vu	82
vais	74
va	73
voit	72
crois	71
font	68
faites	67
trouve	67
aller	66
pu	66
rendre	66
sait	65
Est	63
plaît	62
puisse	61
souffrir	61
croire	60
été	60
parle	59
venir	59
prie	58
BÉLINE	57
sera	57
serait	54
viens	52
pris	51
savez	50
savoir	49
fais	48
semble	47
avais	46
prend	46
voyez	46
demande	45
trouver	45
aurais	44
connaître	43
dites	43
paraître	43
avait	42
dois	42
su	40
pense	39
avons	38
entendre	38
étais	38
eu	37
pouvez	37
pouvoir	37
voudrais	37
donné	35
imprimer	35
Laissez	35
tenir	34
aimer	33
devez	33
ÉLISE	33
eût	32
fasse	32
prends	32
voulu	32
as	31
demander	31
laissez	31
sens	31
allez	30
Faites	30
mis	30
mourir	30
parlez	30
pourrait	30
saurait	30
sortir	30
vivre	30
apprendre	29
jette	29
laisser	29
soient	29
aura	28
laisse	28
met	28
aurai	27
tiens	27
Allez	26
porte	26
servir	26
aurait	25
cru	25
fut	25
peuvent	25
plaire	25
entends	24
entrer	24
faite	24
porter	24
serez	24
tient	24
vaut	24
attendre	23
avoue	23
défendre	23
éclater	23
passer	23
pourra	23
sommes	23
suivre	23
ayant	22
es	22
ferai	22
MARTINE	22
montrer	22
ose	22
passe	22
répondre	22
venu	22
Voyez	22
cherche	21
moquez	21
prenez	21
voyons	21
jouer	20
recevoir	20
regarde	20
rend	20
souffre	20
venez	20
Allons	19
aurez	19
chercher	19
connais	19
Élise	19
empêcher	19
étiez	19
fera	19
offre	19
parlons	19
songez	19
suffit	19
trouvé	19
admire	18
appelle	18
a-t	18
chanter	18
croyez	18
demeurer	18
Donnez	18
écouter	18
engage	18
ôter	18
reçu	18
saurais	18
serais	18
sert	18
tirer	18
user	18
allons	17
croit	17
dirai	17
épouser	17
fit	17
inspire	17
oblige	17
pousser	17
prétends	17
résoudre	17
rire	17
traiter	17
veulent	17
aie	16
donnez	16
Faut	16
quitte	16
serai	16
sois	16
surprendre	16
Va	16
confondre	15
craindre	15
Dites	15
écrit	15
faisait	15
fût	15
importe	15
laissons	15
mettez	15
ouvrir	15
permis	15
prétendre	15
songer	15
soyez	15
surpris	15
boire	14
flatter	14
gagner	14
jouir	14
obliger	14
porté	14
prétend	14
quitter	14
satisfaire	14
Sont	14
touche	14
toucher	14
verrez	14
vienne	14
assurer	13
ayez	13
choisir	13
Doit	13
douter	13
enrage	13
étant	13
faudra	13
ferez	13
jeter	13
mérite	13
mériter	13
montre	13
né	13
oppose	13
penser	13
plaindre	13
pourrez	13
saurai	13
seront	13
sortez	13
souffrez	13
verra	13
vis	13
voudrez	13
abuser	12
aimé	12
aimez	12
assure	12
attend	12
aviez	12
composé	12
connaissez	12
contenter	12
courir	12
démentir	12
désire	12
Dis	12
doute	12
écrire	12
espérer	12
étonne	12
eut	12
expose	12
faisant	12
ferais	12
garder	12
Laissons	12
manquer	12
marier	12
mort	12
naître	12
parlé	12
peux	12
presse	12
promis	12
punir	12
rendez	12
rends	12
réparer	12
savent	12
sort	12
souffert	12
suit	12
Tenez	12
tire	12
tomber	12
tromper	12
troubler	12
venger	12
verrons	12
vont	12
voudrait	12
Voulez	12
blesse	11
consentir	11
crains	11
dise	11
disposer	11
doive	11
donnée	11
éclaircir	11
Faire	11
ferait	11
garde	11
guérir	11
juger	11
lire	11
manque	11
obligé	11
oser	11
ôte	11
pardonne	11
perdre	11
perdu	11
pousse	11
pût	11
renoncer	11
revoir	11
sache	11
Songez	11
souper	11
trouble	11
Venez	11
viennent	11
Voir	11
voudra	11
voulais	11
abandonne	10
apporte	10
avertir	10
Avez	10
battre	10
cacher	10
chasser	10
comprendre	10
condamner	10
conduire	10
conduit	10
descendre	10
disait	10
expliquer	10
Fait	10
fuir	10
joue	10
laissé	10
lève	10
manger	10
mener	10
Mettez	10
obtenir	10
offenser	10
offrir	10
parer	10
passé	10
pensez	10
pourrai	10
pouvait	10
ravi	10
revenir	10
rompre	10
sent	10
soumis	10
suivi	10
Vois	10
voulait	10
voyant	10
vue	10
agit	9
amène	9
arrêter	9
Arrêtez	9
arriver	9
assis	9
attache	9
attaquer	9
attendais	9
auront	9
cache	9
choir	9
connaît	9
découvrir	9
demeure	9
dira	9
dirais	9
disais	9
divertir	9
doivent	9
donnent	9
e	9
entendu	9
envoie	9
excuser	9
explique	9
fis	9
forcer	9
mène	9
mettant	9
mette	9
mise	9
ouïr	9
paraît	9
pourrais	9
prennent	9
préparer	9
profiter	9
rencontre	9
réponds	9
saura	9
témoigner	9
venait	9
Veut	9
Veux	9
vit	9
vouliez	9
accuser	8
adoucir	8
aille	8
aimerais	8
appris	8
appuyer	8
arrache	8
arrête	8
assomme	8
A-t	8
Attendez	8
braver	8
brûle	8
changer	8
charger	8
chérir	8
conjure	8
consens	8
conserver	8
consulter	8
couronner	8
Croyez	8
débiter	8
devait	8
devient	8
deviez	8
devons	8
écoute	8
élise	8
eusse	8
faisons	8
faits	8
gardez	8
goûte	8
haïr	8
ignore	8
mêler	8
menace	8
mettrai	8
moque	8
morte	8
nier	8
nomme	8
obéir	8
offense	8
opposer	8
ordonne	8
ouvert	8
parlant	8
perd	8
portez	8
poussant	8
présenter	8
raisonner	8
refuse	8
regardez	8
rende	8
renonce	8
résolu	8
retenir	8
révère	8
saisir	8
songe	8
Souffrez	8
souhaite	8
suivez	8
taire	8
tombe	8
traite	8
travailler	8
trouverez	8
vas	8
vendre	8
venue	8
accepter	7
accorder	7
accuse	7
agir	7
Ai	7
annoncer	7
approcher	7
Approchez	7
armer	7
arrivé	7
attends	7
auriez	7
avaient	7
blessé	7
briller	7
bruit	7
brûler	7
cède	7
chargé	7
chasse	7
composée	7
comprends	7
confesse	7
connu	7
contraindre	7
convaincre	7
coûte	7
découvert	7
défends	7
demandez	7
déplaise	7
devoir	7
disent	7
embarrasse	7
empêche	7
employer	7
enlever	7
enrager	7
entend	7
entende	7
exposer	7
exprimer	7
fallait	7
feindre	7
feriez	7
fus	7
Gardez	7
irai	7
jure	7
laissent	7
marcher	7
marque	7
mérité	7
offensée	7
oublier	7
ouvre	7
parlent	7
payer	7
possède	7
pourriez	7
prescrit	7
présente	7
prévenir	7
reconnaître	7
réduire	7
refuser	7
regarder	7
régler	7
retourne	7
Sachez	7
satisfait	7
sauriez	7
servi	7
soutenir	7
suivant	7
surprise	7
Taisez	7
tenez	7
traité	7
trouvent	7
trouverais	7
tue	7
venons	7
veuille	7
vint	7
voulant	7
voulons	7
Achevé	6
achever	6
affranchir	6
apprend	6
apprenez	6
Apprenez	6
apprête	6
approuve	6
approuver	6
attaque	6
attirer	6
autoriser	6
avouer	6
Béline	6
blâmer	6
çai	6
cause	6
chante	6
cherché	6
commence	6
commencer	6
concevoir	6
conter	6
corriger	6
court	6
couvrir	6
craignez	6
croyais	6
croyant	6
déclare	6
demandé	6
détourner	6
devenir	6
dormir	6
dresser	6
ébranler	6
échauffer	6
efface	6
émouvoir	6
emporte	6
espère	6
étaient	6
étendre	6
étouffer	6
étrange	6
Être	6
exécute	6
Fais	6
fermer	6
finir	6
former	6
frapper	6
gâter	6
hasarder	6
hier	6
honorer	6
Ignorant	6
impose	6
instruire	6
jeté	6
levant	6
méchant	6
mêlent	6
mets	6
moquer	6
nommer	6
ordonner	6
Parle	6
passant	6
Passe	6
passent	6
Peut	6
plaignez	6
plaint	6
pouvais	6
pouvons	6
prenant	6
Prendre	6
Prenez	6
prescrire	6
prétendez	6
prévenu	6
produit	6
Profitez	6
propose	6
ravie	6
réduit	6
réjouis	6
remettre	6
rendra	6
rendu	6
revient	6
rit	6
sauvé	6
seras	6
serons	6
servent	6
Signé	6
sorti	6
souhaiter	6
soupire	6
soustraire	6
Tais	6
triompher	6
trouves	6
tué	6
vînt	6
Voyons	6
accable	5
accommode	5
achevée	5
acquitte	5
admirer	5
aider	5
aient	5
aimes	5
apprendra	5
arrêté	5
assuré	5
attachée	5
attachent	5
attire	5
attraper	5
bailler	5
blessée	5
blesser	5
caché	5
change	5
charme	5
chéris	5
choque	5
combattre	5
commettre	5
conclu	5
connue	5
conserve	5
consoler	5
contraint	5
crever	5
crier	5
daigne	5
daignez	5
dansent	5
déclarer	5
défaire	5
défend	5
défendu	5
déplaire	5
détruire	5
devais	5
deviné	5
disant	5
donnant	5
éclate	5
embrasser	5
emploie	5
émue	5
engager	5
entendez	5
épouse	5
épris	5
estime	5
Était	5
Êtes	5
eus	5
eussiez	5
excite	5
exécuter	5
Extrait	5
fâcher	5
fassiez	5
fisse	5
force	5
fournir	5
frappe	5
gouverner	5
hais	5
ignorez	5
instruite	5
intéresse	5
interrompre	5
irez	5
joindre	5
justifier	5
lâcher	5
Laisse	5
lasse	5
loué	5
louer	5
lu	5
mariés	5
mêle	5
menti	5
méritez	5
meure	5
mourut	5
nourrir	5
obtient	5
occuper	5
outrager	5
Ouvre	5
Pardonnez	5
Parlez	5
parti	5
partir	5
paru	5
percer	5
persuadé	5
plaira	5
plaise	5
point	5
pourraient	5
poursuit	5
prenait	5
prendra	5
prenons	5
Puisse	5
quereller	5
quittez	5
railler	5
ravir	5
reçois	5
regardant	5
Registré	5
renfermer	5
Rentrez	5
renvoie	5
répandre	5
répond	5
répondu	5
reprendre	5
Représentée	5
reprocher	5
résister	5
respire	5
ressemble	5
reste	5
rester	5
retire	5
retiré	5
retirer	5
Sais	5
sauraient	5
saurez	5
sauver	5
savais	5
secourir	5
senti	5
seriez	5
songé	5
songeais	5
souhaité	5
soumise	5
soyons	5
Suis	5
surprend	5
tâche	5
tâcher	5
touché	5
tourne	5
tourner	5
trahi	5
trahir	5
trembler	5
trouva	5
use	5
vante	5
viendra	5
Viens	5
voudriez	5
abuse	4
accompagné	4
accompagner	4
achève	4
adore	4
aigrir	4
aimait	4
al	4
allant	4
apercevant	4
aperçoit	4
appartient	4
appeler	4
apporter	4
apprendrai	4
arrêtez	4
assurée	4
atteinte	4
attende	4
attendez	4
auraient	4
Aurais	4
avancer	4
avancez	4
avecque	4
aviser	4
avouerai	4
baise	4
baisse	4
batte	4
blâme	4
brille	4
brouillé	4
cesser	4
changé	4
cherchez	4
coiffé	4
commis	4
compter	4
conclure	4
condamnée	4
conseille	4
conseillé	4
considéré	4
coucher	4
couper	4
croie	4
Demande	4
demeurez	4
dépend	4
désespère	4
déshonorer	4
devriez	4
dirait	4
diriez	4
discourir	4
distribuer	4
Donné	4
données	4
Donner	4
donnera	4
dû	4
éclairci	4
égaler	4
élever	4
embrasse	4
empêchera	4
emporter	4
endormie	4
endurer	4
enflammé	4
Ensuitta	4
entraîne	4
entre	4
entré	4
envoyer	4
épargner	4
essayer	4
étale	4
étions	4
éveillé	4
exprime	4
extrait	4
fâché	4
fâchez	4
faille	4
faisais	4
Faisons	4
fallu	4
Fasse	4
faudrait	4
figurer	4
fît	4
flatte	4
Font	4
garantis	4
honore	4
ignorer	4
immoler	4
inquiète	4
instruit	4
intitulée	4
introduire	4
introduit	4
invite	4
irrite	4
jetez	4
joint	4
joints	4
joué	4
jurez	4
laver	4
Levez	4
lie	4
marie	4
mentir	4
Mettons	4
monter	4
née	4
obstine	4
offrent	4
Ont	4
ordonné	4
osez	4
Ouvrez	4
parlait	4
part	4
partager	4
per	4
perde	4
permettez	4
permettre	4
persuader	4
plains	4
pleurer	4
poussé	4
prenne	4
prépare	4
pressé	4
prier	4
prise	4
promener	4
prononcé	4
proposer	4
prouver	4
purge	4
quitté	4
raccommoder	4
régaler	4
Regarde	4
rejoindre	4
remercier	4
remise	4
remplir	4
rencontré	4
rendait	4
renvoyer	4
repentir	4
reprend	4
représente	4
respecte	4
respirer	4
ressembler	4
rétablir	4
Retirez	4
réussir	4
revenant	4
revenez	4
revenu	4
reviens	4
ris	4
romps	4
sachez	4
Savez	4
sentir	4
sépare	4
séparé	4
signifie	4
Signifie	4
songeons	4
sortant	4
Sortez	4
souhaitez	4
soumettre	4
soupçonner	4
Suffit	4
suivie	4
suivrai	4
supplie	4
terminer	4
teste	4
tienne	4
touchez	4
Touchez	4
trompe	4
troublé	4
trouvais	4
trouvait	4
trouvez	4
venge	4
vengé	4
vus	4
abandonner	3
abandonnez	3
abusé	3
accabler	3
accommoder	3
accomplir	3
accomplisse	3
accorde	3
accordé	3
accusez	3
acquitter	3
adresse	3
adresser	3
aimais	3
aimasse	3
aimée	3
aimons	3
ajuster	3
allai	3
allais	3
alliez	3
amener	3
amuser	3
anime	3
apaisé	3
aperçois	3
appartiendra	3
appelez	3
Appelez	3
applaudir	3
appréhende	3
appréhendez	3
approchez	3
arracher	3
arrive	3
As	3
assassiné	3
assommer	3
assurés	3
attaché	3
attendiez	3
attendrir	3
aurons	3
autorise	3
avance	3
averti	3
avions	3
avise	3
avont	3
Ayez	3
ayons	3
banni	3
bannir	3
batifoler	3
brûlez	3
causé	3
causer	3
céder	3
charmé	3
chassé	3
chassez	3
che	3
Che	3
cherchent	3
chéri	3
combat	3
combattu	3
compatis	3
complaire	3
composer	3
comprend	3
comptez	3
conçois	3
condamne	3
conduisez	3
conservez	3
consiste	3
convient	3
courez	3
couvert	3
craint	3
crève	3
crie	3
croirez	3
daigniez	3
découvre	3
décrier	3
dédire	3
défende	3
défendez	3
défie	3
demandait	3
demandent	3
démêler	3
dépêchez	3
dépendre	3
dérober	3
désespérer	3
destiné	3
détaché	3
détromper	3
deviendrai	3
devrait	3
di	3
différer	3
direz	3
disiez	3
dispose	3
Dit	3
dite	3
Donne	3
donnerais	3
donneriez	3
donniez	3
dort	3
douté	3
dudit	3
due	3
échapper	3
écouté	3
Écoutez	3
égayer	3
élevé	3
élire	3
éloigné	3
embarrassé	3
emmener	3
empêché	3
emploierai	3
employez	3
emporté	3
engagé	3
Enrichies	3
enseigne	3
entendent	3
entretenir	3
envoyé	3
éprouver	3
Es	3
esté	3
étonner	3
étonnez	3
étouffe	3
étudier	3
Eût	3
éviter	3
examiner	3
excusé	3
excusez	3
expliquez	3
fâche	3
faisaient	3
fassent	3
feignant	3
feraient	3
ferme	3
feront	3
fiez	3
Finissons	3
flatté	3
formé	3
frappé	3
fuirai	3
fusse	3
fuyez	3
gager	3
gagné	3
galant	3
garantir	3
goûter	3
gouverne	3
haïssez	3
hait	3
hâter	3
hausser	3
illi	3
imiter	3
importune	3
Imprimées	3
imprimés	3
impute	3
inquiéter	3
interdire	3
interdit	3
interrompu	3
inviter	3
io	3
jetant	3
Jette	3
joignez	3
Joignons	3
jouez	3
juge	3
jugez	3
jurer	3
laquais	3
loge	3
loger	3
manqué	3
marche	3
mariant	3
maudite	3
méconnaître	3
mêlez	3
ménager	3
méprise	3
meurt	3
mises	3
monte	3
moquant	3
mourant	3
mourrai	3
nayé	3
nommé	3
nuit	3
obéis	3
obligée	3
obstinez	3
occupent	3
offensé	3
offert	3
offrez	3
osé	3
oses	3
ôté	3
oublié	3
ouï	3
outragé	3
pâme	3
paraissent	3
pardonner	3
parles	3
Parlons	3
passa	3
passez	3
passionné	3
pencher	3
pensais	3
penses	3
Pensez	3
perdez	3
perdons	3
périr	3
placer	3
Plaît	3
posé	3
poursuivre	3
pouvaient	3
pouviez	3
précipité	3
prendraient	3
prendrez	3
preniez	3
préparé	3
préserve	3
presser	3
pressez	3
présumez	3
prêter	3
prévoir	3
prié	3
prit	3
promène	3
puissiez	3
purger	3
put	3
rafraîchir	3
raillant	3
ramène	3
reçoit	3
reçoivent	3
reconnais	3
rectifier	3
redire	3
refusé	3
refusez	3
regardent	3
Regardez	3
relève	3
remettez	3
Remettez	3
rempli	3
remuer	3
rencontrer	3
Rendre	3
rendrez	3
Répond	3
réponde	3
répondez	3
Représenté	3
représenter	3
résiste	3
résolue	3
résout	3
restée	3
retournant	3
retourner	3
révérer	3
reviendrai	3
revu	3
rougir	3
rougis	3
saisie	3
satisfaits	3
savons	3
secondé	3
semblait	3
semer	3
sentais	3
sentez	3
serions	3
servant	3
sied	3
sollicite	3
soufflé	3
Souffre	3
souffrent	3
soumet	3
soutenez	3
soutenu	3
soutiens	3
subir	3
suffire	3
Suivant	3
suivent	3
supplier	3
supporter	3
Tâchons	3
tâte	3
tâter	3
tempérer	3
tenait	3
tenant	3
tend	3
tenter	3
tenus	3
tiennent	3
tiré	3
tombée	3
touchée	3
traîne	3
traitée	3
trancher	3
trompé	3
trouvant	3
Trouvez	3
vaincre	3
valoir	3
vaudrait	3
vaux	3
venant	3
venus	3
verrai	3
verrais	3
Veuillez	3
vi	3
viendrez	3
vins	3
vivons	3
voie	3
voient	3
Voit	3
volé	3
voler	3
voyais	3
voyois	3
vuider	3
A	2
abandonné	2
abattue	2
abhorre	2
absolu	2
absoudre	2
abstenir	2
accablé	2
accepte	2
accepté	2
accommodent	2
accordons	2
accourez	2
Accourez	2
accoutumé	2
accoutumée	2
Achevons	2
acquérir	2
admirez	2
affecter	2
afflige	2
affliger	2
aillent	2
aimont	2
Ait	2
ajoutée	2
ajouter	2
alarmé	2
alarmer	2
allait	2
allé	2
altéré	2
âmé	2
amender	2
amené	2
amollir	2
animé	2
animée	2
animer	2
ant	2
aperçu	2
appelles	2
Appendre	2
applique	2
appliquer	2
appréhender	2
apprends	2
apprenne	2
appuyant	2
armait	2
armé	2
armez	2
Arnolphe	2
arrêtant	2
Arrête	2
asseoir	2
asservir	2
associé	2
assommé	2
assujettir	2
Assuré	2
attacher	2
attachés	2
Attaque	2
attaqué	2
attiré	2
attribuer	2
augmente	2
augmenté	2
auguré	2
Auraient	2
Aurait	2
Aut	2
avaler	2
avantager	2
avertit	2
avisé	2
avisés	2
Bailler	2
baisait	2
baiser	2
baiserai	2
baissé	2
baissée	2
baisser	2
bâti	2
battez	2
battu	2
bénir	2
bénis	2
borner	2
bouche	2
boutont	2
Braver	2
brise	2
briser	2
bu	2
cachée	2
cajole	2
caresser	2
caresserai	2
Cassé	2
casser	2
cèle	2
célébrer	2
cessez	2
Cessez	2
Ch	2
chagrine	2
chantant	2
chargés	2
chargez	2
charmée	2
charmer	2
châtier	2
cherchais	2
cherchons	2
chérie	2
chévir	2
Choisir	2
choisis	2
choqué	2
choquer	2
chosa	2
citer	2
claquemurer	2
coiffée	2
collationnées	2
comblez	2
commande	2
Commande	2
Commandons	2
commencé	2
complaisant	2
compose	2
compris	2
concédé	2
concevez	2
conclut	2
condamné	2
confie	2
confonde	2
conjurer	2
connaissais	2
connaisse	2
connaissent	2
connus	2
consacré	2
consacrer	2
conseillez	2
consente	2
consentiez	2
consentira	2
conservé	2
consister	2
consomme	2
conspire	2
consumée	2
conte	2
Contempler	2
contenant	2
contente	2
Contentez	2
contez	2
contient	2
continue	2
continuer	2
contracter	2
contrainte	2
contrôle	2
contrôler	2
converti	2
convie	2
corrigé	2
corrompent	2
corrompt	2
courant	2
courrouce	2
cours	2
courtise	2
coûtera	2
craignais	2
croient	2
croirai	2
croirait	2
Croire	2
croiriez	2
Crois	2
croissent	2
Croit	2
croît	2
croyait	2
daigné	2
Daignez	2
débrouiller	2
déchaîné	2
décharge	2
déchiré	2
déclaré	2
déclarés	2
dédaigné	2
dédier	2
dédis	2
déguisant	2
demandée	2
demandes	2
Demandez	2
démêlé	2
Démêlez	2
demeuré	2
demeurent	2
demeurerez	2
demeuriez	2
demeurons	2
dépeindre	2
dépeint	2
Dépend	2
déplaît	2
dépouiller	2
dérobe	2
Dérober	2
désavouer	2
descendez	2
désespéré	2
désiré	2
désirerait	2
désirez	2
destine	2
détachée	2
détacher	2
déterrer	2
détruite	2
devenu	2
dévore	2
die	2
dîner	2
disaient	2
disputer	2
dissiper	2
distingue	2
distinguer	2
distraire	2
distrait	2
divulguer	2
donna	2
donnait	2
doré	2
dormant	2
Douer	2
doutez	2
dupé	2
duper	2
durer	2
dût	2
ébahi	2
ébloui	2
éblouir	2
échauffe	2
éclaircie	2
éclaire	2
éclairé	2
éclairer	2
éclairés	2
écrie	2
effacer	2
efforcer	2
élevée	2
éloignant	2
éluder	2
embarrasser	2
Embrassez	2
émeut	2
empaumé	2
empêcherai	2
employé	2
emportée	2
emportez	2
emprunte	2
endure	2
enflamme	2
enflé	2
engendré	2
enjoignons	2
Enregistré	2
enrichir	2
entendais	2
Entendez	2
entrepris	2
entrons	2
Entrons	2
envisage	2
épargné	2
épargnez	2
épousé	2
épouserait	2
épouvantée	2
éprise	2
épuisé	2
épurés	2
espérais	2
essuie	2
essuyer	2
estimer	2
établie	2
étaler	2
éteindre	2
éteint	2
étend	2
étendu	2
étonné	2
étourdir	2
étriller	2
étudie	2
eue	2
évacuer	2
évader	2
évitons	2
excuse	2
excuserez	2
exécuté	2
exercer	2
exhorte	2
exigé	2
expliquerai	2
Exprime	2
fâchée	2
facit	2
faillir	2
faisions	2
fallut	2
Fassent	2
fatiguant	2
feindrai	2
feint	2
fera-t	2
ferions	2
ferons	2
filer	2
finit	2
flattant	2
flattez	2
fondé	2
fondre	2
forcé	2
forcés	2
forgé	2
fouetter	2
fourni	2
Frappant	2
frustrer	2
fuis	2
fussiez	2
gage	2
gagerais	2
gagne	2
garant	2
Garde	2
gardé	2
gâtent	2
gauchir	2
glose	2
goûtent	2
guindé	2
hante	2
hâtez	2
hésiter	2
heurte	2
humecter	2
immole	2
immolé	2
implore	2
importuner	2
imputé	2
imputée	2
informe	2
informé	2
insinuer	2
inspiré	2
inspirent	2
inspirer	2
instruise	2
insulter	2
interrompant	2
interrompt	2
ira	2
irais	2
irait	2
jaser	2
jouent	2
joui	2
Jugez	2
laisseront	2
lasser	2
Lever	2
lier	2
lirez	2
lise	2
Lisez	2
lit	2
livre	2
livrer	2
Loger	2
maintenir	2
mander	2
mandons	2
mange	2
mangé	2
mangez	2
manquant	2
manquent	2
manquerai	2
marchander	2
marchez	2
mariée	2
marierai	2
Mariez	2
marquer	2
Medicina	2
médire	2
mêlé	2
mêlée	2
ménage	2
menez	2
ment	2
méprendre	2
Méritez	2
mettait	2
mettent	2
meurs	2
monté	2
montez	2
montra	2
Montre	2
montré	2
Montrer	2
montrerai	2
montrons	2
mordre	2
mortifie	2
mortifié	2
mouche	2
murmurer	2
nettoyer	2
no	2
Noyez	2
obéi	2
obéisse	2
obéissez	2
obligent	2
obligés	2
observée	2
observer	2
obstinée	2
obtienne	2
obtiens	2
octroie	2
opéré	2
opposées	2
opprimée	2
orné	2
osent	2
Ôte	2
Otez	2
ôtez	2
outrage	2
outragée	2
ouverts	2
parliez	2
pâtit	2
paye	2
payé	2
payerez	2
pazza	2
pécher	2
pendu	2
pensé	2
pensée	2
pensent	2
perdant	2
perds	2
Permettez	2
permettons	2
persécutée	2
persécuter	2
persuade	2
pèse	2
Peuvent	2
piquer	2
plais	2
plaisant	2
planter	2
pleure	2
pleures	2
pleurez	2
portait	2
Porte	2
portée	2
portent	2
porterai	2
portés	2
porte-t	2
possédée	2
Pourra	2
pourras	2
poussez	2
pouvant	2
Pouvez	2
prêché	2
prêchez	2
prémédité	2
prendrai	2
prendras	2
Prends	2
Prépare	2
préparez	2
présage	2
Pressez	2
présume	2
prête	2
prêté	2
prétendent	2
prétendu	2
prévois	2
prévu	2
Pris	2
prive	2
privé	2
procéder	2
profite	2
profitent	2
promet	2
promettez	2
promise	2
prononcer	2
Prononcez	2
proteste	2
prova	2
provenir	2
publier	2
puissent	2
Puissent	2
Puisse-t	2
querelle	2
quérir	2
Quittez	2
raillez	2
raisonne	2
raisonnons	2
ramener	2
rappeler	2
rapporte	2
rebuté	2
rebuter	2
rebutez	2
recevant	2
recommencer	2
reconnaît	2
reçue	2
reculant	2
recule	2
redonne	2
redonner	2
redoubler	2
redoute	2
redouter	2
redresser	2
réduisent	2
réduite	2
réduits	2
refusais	2
regardais	2
regardé	2
registrées	2
rejeter	2
réjouir	2
réjouit	2
remarque	2
remedia	2
Remettons	2
remontrer	2
remporté	2
rencontrant	2
rendrait	2
renfermé	2
renfermée	2
rentre	2
rentrer	2
rentrez	2
répandent	2
réparé	2
repartir	2
repasse	2
repent	2
répète	2
répété	2
répéter	2
Répondez	2
repousser	2
reprenons	2
repris	2
répugne	2
résolut	2
Résolvez	2
résous	2
respecter	2
ressouvenir	2
rétablie	2
retenez	2
rétracte	2
réveille	2
réveiller	2
révéler	2
revenue	2
révèrent	2
rêvez	2
rhabillé	2
rie	2
riez	2
risque	2
Rompons	2
rompt	2
rossé	2
rôti	2
roué	2
rougissez	2
roulée	2
s	2
sacrifie	2
saisi	2
saisies	2
Sait	2
satisfaite	2
saurions	2
saurons	2
Sauront	2
sauve	2
sauvée	2
Sauvez	2
saviez	2
Savoir	2
scandalise	2
scandalisé	2
sçavanti	2
scellé	2
seconde	2
seconder	2
séduit	2
semblant	2
semblent	2
semblera	2
semblez	2
sentant	2
séparer	2
seraient	2
serrez	2
serve	2
servez	2
servira	2
sguardi	2
Sied	2
signaler	2
signifiait	2
signifiées	2
Sois	2
sommeille	2
sonder	2
songerons	2
sonne	2
sors	2
sortais	2
sortait	2
sortent	2
soucierais	2
soufferts	2
souffrirai	2
souffrirais	2
souffrirons	2
souhaiterais	2
soupçonne	2
soutient	2
souvenu	2
souviens	2
succomber	2
suive	2
suivis	2
suivons	2
supposer	2
sus	2
tâchons	2
tairez	2
taise	2
taisez	2
tarde	2
tarder	2
Tâtez	2
témoigne	2
tendent	2
tenons	2
tenu	2
tenue	2
tenues	2
termine	2
tiendra	2
tiendrai	2
tiendrez	2
Tient	2
tirez	2
tombé	2
tombent	2
touchent	2
touchés	2
tourmenter	2
tourmentez	2
tourné	2
tournez	2
Tournez	2
tousse	2
tracé	2
traîné	2
transporté	2
travaillent	2
tremble	2
tressaillir	2
triomphe	2
trompée	2
trouvai	2
trouvée	2
Trouver	2
trouverait	2
trouvés	2
trova	2
tuâtes	2
Tympaniser	2
tyranniser	2
usé	2
valait	2
vanté	2
vantez	2
Vas	2
venais	2
veniez	2
verrait	2
verriez	2
verser	2
vêtus	2
vider	2
viendrai	2
Vient	2
visiter	2
vît	2
vive	2
vivrez	2
voilée	2
Vont	2
voudrai	2
voudras	2
vouer	2
Voulons	2
voyait	2
abaisse	1
abaissées	1
abaisser	1
abandonnons	1
Abandonnons	1
aborde	1
aborder	1
abusais	1
Abuse	1
abusée	1
abusent	1
abuserai	1
abusez	1
accableront	1
accablez	1
Accablez	1
acceptant	1
acceptera	1
accepterais	1
accepterez	1
acceptez	1
accommodant	1
accommodée	1
accommoderais	1
accommodés	1
accompagne	1
Accompagné	1
accompagnez	1
accomplis	1
accordée	1
accordent	1
Accordent	1
accordez	1
accordiez	1
accoucher	1
accourent	1
accoutumées	1
accoutumer	1
accrochées	1
accroire	1
accroît	1
accusaient	1
accusait	1
accusant	1
accusât	1
accusé	1
accuserai	1
accusés	1
Accusez	1
accusiez	1
acharne	1
acharnée	1
achète	1
acheter	1
achevant	1
achèverez	1
Achevez	1
Acquérir	1
acquiert	1
acquis	1
acquittai	1
acquitté	1
acquittés	1
actis	1
admis	1
adoré	1
adouci	1
Adouci	1
adressant	1
adressé	1
adressent	1
advienne	1
affaiblit	1
affecte	1
affecté	1
affectée	1
affectent	1
affectés	1
affermie	1
affranchisse	1
Affranchisse	1
affranchissez	1
affranchit	1
affronte	1
agacer	1
Agir	1
agissez	1
agissons	1
agité	1
agréez	1
Agréez	1
aheurtée	1
Aheurter	1
aide	1
aidé	1
aideront	1
aides	1
aigri	1
aigrit	1
aiguiser	1
aimai	1
aimant	1
Aime	1
aiment	1
aimeriez	1
Aimez	1
ajoute	1
Ajoute	1
ajustait	1
ajustée	1
ajusterai	1
alarma	1
alarmait	1
alarme	1
alarmez	1
alla	1
allasse	1
Alle	1
allés	1
allonge	1
altérée	1
altérer	1
ambitionne	1
amenés	1
amourache	1
amusait	1
amuse	1
amuses	1
amusez	1
amusions	1
amusons	1
ancré	1
anéantir	1
Anime	1
anni	1
annoncent	1
apaise	1
apaiser	1
apaisez	1
apercevoir	1
aperçus	1
aplanir	1
apostrophe	1
appartiens	1
appelait	1
appelée	1
appelent	1
Appeler	1
Appelle	1
appellont	1
appelons	1
appende	1
applaudie	1
Applique	1
appliquent	1
apporté	1
apporteras	1
apportez	1
appréhendai	1
appréhendais	1
Appréhende	1
apprenant	1
Apprendre	1
apprendrez	1
apprenons	1
apprêtes	1
apprêtons	1
apprise	1
apprit	1
approchant	1
approche	1
Approchons	1
approfondirons	1
approprier	1
approuvé	1
Approuvent	1
approuverez	1
approuveront	1
approuvés	1
appuie	1
appuient	1
appuierai	1
Appuyer	1
Arder	1
Ardez	1
argumenter	1
Arme	1
armés	1
arraché	1
arracherai	1
arrachés	1
arrêtée	1
arrêtes	1
arrivant	1
Arrivant	1
arrivât	1
Arrivé	1
arrivée	1
arrivera	1
aspire	1
aspirent	1
Aspirez	1
assaillant	1
assaisonné	1
assassiner	1
assemblati	1
assemble	1
Assembler	1
assemblés	1
assener	1
asservi	1
asservie	1
asseyez	1
assigne	1
Assigner	1
assistantis	1
assister	1
assommez	1
assorti	1
assotée	1
Assoter	1
assoupire	1
assouvir	1
assujettis	1
assurez	1
attachait	1
attaquée	1
attaqués	1
attaquez	1
atteindre	1
atteint	1
attendant	1
Attendant	1
attendrai	1
Attendrai	1
attendrait	1
attendries	1
Attends	1
attente	1
atterré	1
atteste	1
attirait	1
Attire	1
attirerait	1
attirerez	1
attrapant	1
attrapé	1
augmenter	1
augurer	1
Aurez	1
Auriez	1
Aurons	1
autorisé	1
Avaient	1
avalé	1
avançai	1
avancent	1
Avancez	1
avertis	1
avertissez	1
avisa	1
avisât	1
avisa-t	1
avisera	1
avises	1
avise-t	1
Avisez	1
avouez	1
Ayons	1
babille	1
babiller	1
baille	1
baillé	1
baillez	1
Baiser	1
Baiserai	1
baissant	1
balance	1
balayer	1
bannie	1
bannies	1
bannirez	1
bannissons	1
bannit	1
baptise	1
barbouiller	1
batifolant	1
batifole	1
bats	1
battaient	1
Battre	1
bayez	1
béni	1
bénisse	1
berce	1
berné	1
bigarré	1
bine	1
blâmé	1
blâmée	1
blâment	1
blâmera	1
blâmez	1
blanchir	1
blessées	1
Blesser	1
blessés	1
bois	1
boit	1
bona	1
boni	1
Boni	1
borné	1
bouché	1
bouchonnerai	1
bougé	1
bouger	1
bouges	1
bouillant	1
bouilli	1
Bouillir	1
Bourdonner	1
bourrer	1
bouté	1
bouter	1
boutés	1
boutiquas	1
brandis	1
brave	1
bravé	1
bravés	1
bride	1
briguer	1
brillent	1
brisée	1
Brisons	1
brouillons	1
bruire	1
brûlé	1
brûlent	1
Brûler	1
brûlons	1
ç'aurait	1
ç'auroit	1
cacha	1
cachait	1
Cacher	1
cacheras	1
cachez	1
Cachez	1
cachons	1
cadrent	1
cai	1
calmé	1
calmer	1
Calmez	1
campèrent	1
caressiais	1
carrosse	1
cassé	1
Cause	1
Causent	1
causeront	1
cédé	1
Cédez	1
cédons	1
cela	1
célèbrent	1
celer	1
censurée	1
censurent	1
censurer	1
cesse	1
Cesse	1
cessé	1
cessiez	1
cessons	1
chagraignes	1
changeant	1
changée	1
changent	1
changerais	1
changerait	1
changeriez	1
Chanter	1
chantés	1
charge	1
chargée	1
chargiez	1
charment	1
charmés	1
charmez	1
chassa	1
chassant	1
Chassons	1
Châtier	1
chatouille	1
chatouiller	1
chaussé	1
chercha	1
Cherche	1
cherchera	1
chercherons	1
cherchions	1
chériraient	1
chérit	1
cheux	1
Chévir	1
choie	1
choisi	1
choisirai	1
Choisis	1
Choisissez	1
chose	1
chu	1
citant	1
cite	1
cité	1
Claquemurer	1
clarifié	1
clouer	1
cogné	1
coller	1
collet-monté	1
colorées	1
combattrez	1
combattus	1
comblé	1
comblera	1
comblerait	1
commandé	1
commander	1
commença	1
Commence	1
commettez	1
commise	1
compania	1
companiae	1
comparer	1
compatit	1
comporter	1
composées	1
composés	1
comptait	1
compte	1
compté	1
comptés	1
conceviez	1
conclue	1
concluraient	1
conçoit	1
Condamnée	1
condamnent	1
condamnerai	1
condamnes	1
condamnez	1
condescendre	1
conditionnés	1
conduis	1
conduisait	1
conduise	1
conduite	1
Conduites	1
conduits	1
confesser	1
confia	1
confiée	1
confier	1
confirmaient	1
confirme	1
confirmé	1
confirmées	1
confirmer	1
confirmés	1
confit	1
Confond	1
confondent	1
confondiez	1
Confondons	1
Confondre	1
Confondu	1
confondue	1
confondus	1
conglutiner	1
conjoints	1
conjuré	1
conjurerai	1
connaissait	1
connaîtra	1
connaîtrai	1
connaîtrez	1
connaîtront	1
connues	1
conquis	1
consacrait	1
consacre	1
consacrés	1
Consacrez	1
conseiller	1
Conseillez	1
consent	1
consentais	1
consentez	1
consenti	1
Consentira	1
consentirai	1
consentons	1
conservées	1
conservons	1
considérait	1
considère	1
Considère	1
considérerez	1
considérez	1
Considérez	1
considériez	1
consolerez	1
Consolez	1
construire	1
construits	1
Consulte	1
consulté	1
contemple	1
contemplez	1
contentaient	1
Contente	1
contentent	1
contentera	1
contentez	1
contestais	1
contestée	1
contestez	1
continué	1
continuez	1
contraignez	1
contrains	1
contrariée	1
contrarier	1
contrecarré	1
contrecarrer	1
contredis	1
contrefaire	1
contrefait	1
contrefaites	1
contribuer	1
contrôlé	1
convainque	1
convenir	1
Convenit	1
convocati	1
convoiter	1
convoitiez	1
convolaient	1
coqueter	1
Coqueter	1
corde	1
corné	1
Corner	1
corpore	1
corpori	1
corrige	1
Corrigée	1
Corriger	1
corrompu	1
corrompue	1
couchai	1
couché	1
coudre	1
coulent	1
couler	1
Couler	1
coupai	1
coupaient	1
coure	1
courent	1
couronne	1
courons	1
courroucé	1
Courroucé	1
courus	1
cousus	1
coûté	1
coûtent	1
coûterait	1
couverts	1
Couvre	1
couvrent	1
Couvrez	1
Couvrons	1
crachant	1
cracher	1
craignons	1
Crainte	1
crevare	1
crevé	1
crevée	1
crèvent	1
Crever	1
criaient	1
crieront	1
criez	1
croira	1
croirais	1
Croiriez	1
croisées	1
croîtrait	1
croyaient	1
croyions	1
croyons	1
crue	1
crus	1
crût	1
cueille	1
cuore	1
curée	1
daignent	1
daignerez	1
damné	1
damnée	1
damnent	1
damner	1
damneront	1
dater	1
daubé	1
Dauber	1
débaptiser	1
débarbouiller	1
débarrassée	1
débarrassées	1
débattu	1
débite	1
débitez	1
débonde	1
Débonder	1
débrouille	1
Débrouillons	1
décevant	1
décevoir	1
déchaîner	1
déchaînés	1
déchargé	1
déchirer	1
déchires	1
décident	1
décider	1
Décidèrent	1
déclamiez	1
déclarant	1
déclarez	1
décline	1
déçoit	1
découverte	1
découvrent	1
découvrez	1
Découvrez	1
Découvrir	1
découvrons	1
décrète	1
déçu	1
déçue	1
dédaigne	1
dédites	1
défendent	1
Défendez	1
défendrai	1
défendue	1
défère	1
définir	1
définit	1
dégage	1
dégager	1
dégénérer	1
dégonfler	1
dégoûtant	1
dégoûter	1
déguise	1
déguisé	1
déguiser	1
déguisés	1
Del	1
délassent	1
délasser	1
délibérer	1
délivre	1
délivrée	1
Délivrez	1
demandera	1
demanderais	1
démange	1
démanger	1
démens	1
démenti	1
demeurera	1
demeures	1
Demeurez	1
démontent	1
démord	1
démordrai	1
démordre	1
denicher	1
dénicherez	1
Dénichez	1
dénié	1
dénoncer	1
dépaysée	1
dépêche	1
Dépêchez	1
dépende	1
dépendront	1
dépense	1
dépenser	1
dépeuplé	1
dépité	1
déplaisaient	1
dépliait	1
déploie	1
déplu	1
dépouille	1
Dépouiller	1
dépouillés	1
dépourvu	1
dépravée	1
députe	1
déréglée	1
déréglées	1
dérobée	1
dérobent	1
désabusé	1
désabusée	1
désabuser	1
dés-Amphitryonne	1
désapprouveriez	1
désarme	1
désarmer	1
désavouent	1
désavoueriez	1
désavouez	1
descend	1
Descendant	1
descende	1
désennuyer	1
déserter	1
déshériterai	1
déshonore	1
Déshonore	1
déshonorée	1
déshonorées	1
déshonorent	1
désigne	1
désirer	1
désirerais	1
desservi	1
dessillé	1
des-Sosie	1
destine-t	1
détache	1
détachés	1
détermine	1
déterminée	1
détestant	1
déteste	1
détesté	1
détestées	1
détestés	1
détestez	1
détournas	1
détourne	1
détourné	1
détournée	1
détruit	1
devançait	1
devancé	1
devant	1
deveniez	1
devenue	1
dévidaient	1
deviendra	1
deviendraient	1
deviendrait	1
deviendrez	1
devienne	1
deviens	1
Devient	1
devine	1
deviner	1
devines	1
devînt	1
dévisager	1
dévoilé	1
Devons	1
dévorer	1
devrais	1
dicte	1
diffère	1
différée	1
différez	1
digérées	1
digérer	1
dignas	1
dîne	1
Dire	1
dirigé	1
dirois	1
diront	1
Disant	1
disciplinée	1
discourant	1
Discourons	1
disparaître	1
dispenser	1
dispensez	1
Dispose	1
disposée	1
disposées	1
disposons	1
disputons	1
dissimule	1
dissimuler	1
dissipé	1
dissipent	1
Dissiper	1
dissipera	1
dissuader	1
distillée	1
divertirai	1
divertissent	1
divertit	1
divisé	1
diviser	1
divulgue	1
doctae	1
doctas	1
dom_Louis	1
dom_Sylve	1
domine	1
dompte	1
Donna	1
Donnant	1
donnas	1
donnerai	1
donnerait	1
donnerez	1
donnerions	1
donnés	1
donnions	1
donnons	1
Donnons	1
dorer	1
dormit	1
dormitiva	1
douer	1
douta	1
douterait	1
doutiez	1
drait	1
dresse	1
dulcoré	1
dupe	1
durant	1
dure	1
duré	1
dureront	1
dûs	1
dusse	1
Dût	1
ébattre	1
éblouis	1
ébobi	1
ébranlé	1
écarquille	1
écarté	1
écartée	1
écarter	1
échappe	1
échappé	1
échappés	1
échauffée	1
échauffez	1
éclaircis	1
éclairée	1
éclatant	1
éclaté	1
écorché	1
écorcher	1
écoutais	1
écoutant	1
Écoute	1
Écouté	1
écoutes	1
écoutés	1
Écoutons	1
Écrire	1
écrite	1
écrivit	1
édifié	1
édifiée	1
Efface	1
effacé	1
effacée	1
effacent	1
effaré	1
effarouchés	1
effarouchiez	1
efforce	1
efforcé	1
efforçons	1
Efforçons	1
effrayés	1
égala	1
égale	1
Égaler	1
égaré	1
égarés	1
égayent	1
égosiller	1
élevez	1
Éloigne	1
éludés	1
émancipé	1
émanciper	1
embarquez	1
Embarrasse	1
embéguiné	1
Embéguiner	1
embrasée	1
embrassai	1
embrassent	1
embrouillé	1
émoulu	1
émouvait	1
empare	1
emparé	1
emparer	1
empaumer	1
Empaumer	1
empêcha	1
empêchaient	1
empêchées	1
empêchent	1
Empêcher	1
empêcherait	1
empêcherez	1
empêches	1
empêchez	1
emploierait	1
empoisonne	1
empoisonnée	1
empoisonner	1
emportent	1
emportera	1
empressés	1
emprisonné	1
empruntera	1
émus	1
enchaîné	1
enchaînée	1
enchaînées	1
enchanté	1
encourager	1
endormons	1
endort	1
endurci	1
enferme	1
enfermée	1
enfermez	1
enfiliez	1
enflammait	1
enflammée	1
enflammer	1
enfle	1
enfler	1
enfoncé	1
Enfoncez	1
enfui	1
enfuient	1
enfuit	1
enfuyant	1
Engagé	1
engagea	1
engageaient	1
engageare	1
engagée	1
engendrer	1
enhardie	1
enlevée	1
ennuie	1
ennuyait	1
ennuyer	1
ennuyez	1
enragé	1
enrhume	1
enrhumé	1
enrichi	1
enrôler	1
enseignait	1
enseigner	1
enseignera	1
Enseignez	1
enseveli	1
ensevelir	1
ensuit	1
ensuivre	1
entendit	1
Entends	1
entêté	1
entêtent	1
entr'ouverte	1
entra	1
entraîné	1
entraîner	1
entrant	1
Entrant	1
entrecoupâmes	1
entrée	1
ENTRÉE	1
entremêlées	1
entrent	1
entreprendrai	1
entreprendrait	1
entreprendre	1
entrerez	1
entrerions	1
entrés	1
entretenu	1
entretienne	1
entretiennent	1
entrevoir	1
Entrez	1
énumérés	1
enveloppe	1
Enveloppent	1
envelopper	1
envenimée	1
enverra	1
enverrai	1
envié	1
envier	1
enviés	1
envoirai	1
envole	1
envoyai	1
envoyez	1
Envoyez	1
épaissir	1
épanche	1
épanché	1
épanchée	1
épargne	1
épargnes	1
épier	1
épluchant	1
épousasse	1
épousées	1
épousent	1
Épouser	1
épousera	1
épouseriez	1
épousez	1
épousiez	1
épouvante	1
épouvanté	1
épuisent	1
épuiser	1
épuré	1
épurée	1
épurer	1
ériger	1
érigerai	1
escorte	1
escorter	1
espérez	1
essaye	1
essayions	1
essere	1
essoufflé	1
estimé	1
Estimer	1
estimés	1
estions	1
estois	1
estoit	1
estomaque	1
estourdi	1
estropier	1
estropiés	1
établissent	1
établissons	1
étala	1
étalés	1
étalez	1
éteinte	1
étendent	1
Étendez	1
étendons	1
étendue	1
eticis	1
étoilas	1
étois	1
étoit	1
étonnais	1
étonnée	1
étonnerait	1
étonnés	1
étonniez	1
Étouffe	1
étouffées	1
Étourdi	1
étrillé	1
ets	1
étudié	1
étugué	1
eussent	1
Eussent	1
Eut	1
évade	1
évanouir	1
évanouis	1
évanouissent	1
évente	1
éventé	1
éventer	1
évité	1
exagérer	1
examine	1
exaucé	1
exaucés	1
excité	1
excusassiez	1
Excuser	1
excuseriez	1
Excusez	1
exécutée	1
exécutés	1
exempté	1
exerça	1
exercé	1
exercent	1
Exercer	1
exhaler	1
exige	1
exigez	1
exilé	1
exiler	1
expédie	1
expédiera	1
expédies	1
expia	1
expier	1
expirant	1
expire	1
expirer	1
Explique	1
expliqué	1
expliquée	1
expliqués	1
exploité	1
exposaient	1
exposé	1
exposée	1
Exposée	1
exposés	1
Exposez	1
expriment	1
exprimera	1
Exprime-t	1
expulser	1
F	1
fabrique	1
fâcherez	1
Facit	1
faisiant	1
faisois	1
Fallaci	1
fallût	1
farcis	1
fardés	1
fassions	1
fatigue	1
fatiguer	1
faudra-t	1
favorisant	1
favoriser	1
favorisés	1
feignait	1
feins	1
fendez	1
Fera	1
Ferai	1
feras	1
Ferez	1
fermé	1
fermée	1
Fermez	1
fermiez	1
fier	1
fierai	1
fierais	1
fige	1
figura	1
figurai	1
figurais	1
figuré	1
figurez	1
Figurez	1
filaient	1
files	1
fini	1
finira	1
Finira	1
finissant	1
finissez	1
finti	1
Firent	1
Fis	1
fissiez	1
fîtes	1
Flatte	1
flattent	1
Flatter	1
fléchir	1
fleuri	1
fleurie	1
fleuris	1
Fondé	1
fondée	1
fondent	1
fondez	1
Força	1
forçait	1
Forcent	1
forcerai	1
forcerais	1
forcez	1
forge	1
formalises	1
formant	1
formées	1
Former	1
formés	1
Formez	1
Formons	1
fortifiant	1
fortifie	1
fortifier	1
fournis	1
fournit	1
fourrer	1
fourvoyé	1
franchi	1
franchir	1
franchis	1
frappez	1
Frappez	1
frappois	1
frémi	1
frémis	1
fréquente	1
fréquenter	1
fréquenterez	1
frisée	1
frissonner	1
frissonnez	1
frondé	1
frotter	1
fuirait	1
fuit	1
fumée	1
fûmes	1
funeste	1
fureté	1
fussent	1
Fût	1
fûtes	1
fuyait	1
fuyant	1
Fuyons	1
gagé	1
gageai	1
Gageons	1
Gager	1
gagez	1
gagnât	1
gagnée	1
Garcie	1
GARCIE	1
gardai	1
gardais	1
gardasse	1
gardassent	1
Garder	1
garderai	1
gardés	1
garnie	1
gâte	1
gâté	1
gâtez	1
gâtons	1
gausse	1
gênaient	1
gendarme	1
gendarmé	1
gêne	1
gêner	1
gênés	1
gli	1
glissé	1
gloser	1
gober	1
gourment	1
Gourmer	1
goûta	1
goûtât	1
Goûtera	1
goûtez	1
Goûtez	1
gouverna	1
gouvernait	1
gouverné	1
gouvernée	1
gouvernent	1
granda	1
gratiam	1
grave	1
grondant	1
gronde	1
gronder	1
Gronde-t	1
grondez	1
grossis	1
Grouiller	1
grouillerois	1
grouilloit	1
guéri	1
Guéri	1
guérissaient	1
guérissent	1
Guérissez	1
guérissiez	1
guérit	1
guettais	1
gueusant	1
gueuser	1
Gueuser	1
Guez	1
habent	1
habillée	1
habiller	1
Habitez	1
Haïssez	1
hantez	1
happer	1
hasarde	1
hasardez	1
hâte	1
hâté	1
Hâtez	1
haussant	1
hausse	1
Haussez	1
haver	1
Henriette	1
heurter	1
Heurter	1
hiero	1
honorée	1
honorez	1
Houais	1
humanise	1
humaniser	1
humilié	1
ignoranta	1
Ignorer	1
illumine	1
illustre	1
imaginent	1
imaginer	1
imagines	1
imitait	1
imité	1
immolant	1
immolez	1
impatronise	1
importe-t	1
importunent	1
importunes	1
importunez	1
imposent	1
imposer	1
Imposer	1
Imposez	1
Imprimant	1
imprimées	1
imprimez	1
imputais	1
imputerait	1
imputez	1
inclinées	1
incommode	1
incommoder	1
incommodons	1
indigner	1
induire	1
infatuti	1
infectée	1
infectent	1
influencé	1
informais	1
informer	1
injurier	1
inquiété	1
inquiétée	1
inspira	1
instruira	1
Instruisez	1
Instruit	1
insulté	1
intégrés	1
interdite	1
interdits	1
intéressé	1
intéressée	1
intéresser	1
interprète	1
interpréter	1
interrogé	1
interroger	1
interrompent	1
interrompez	1
intimide	1
intitulé	1
inventé	1
Inventé	1
inventée	1
investit	1
invités	1
iraient	1
iriez	1
iront	1
irrité	1
it	1
jase	1
Jaser	1
jaseriez	1
Jerni	1
Jernigué	1
Jerniqué	1
jesquions	1
jetait	1
jetée	1
Jeter	1
jetés	1
Jetez	1
jettent	1
jetterai	1
jette-t	1
jeûne	1
joignant	1
joigne	1
Joignit	1
jouant	1
joues	1
Jouissez	1
jouit	1
Jouit	1
jugé	1
jugeassiez	1
jugeons	1
Juger	1
jugerai	1
jugerez	1
jurait	1
Juras	1
juré	1
jurerais	1
Jurez	1
justifie	1
lâchant	1
lâchée	1
Laissa	1
laissant	1
Laissant	1
laissée	1
laisserais	1
laissera-t	1
laisserez	1
laisses	1
Laisse-t	1
lance	1
lancer	1
languidi	1
languir	1
Languirai	1
languit	1
lassé	1
lassez	1
LAURENT	1
lénifier	1
Lève	1
levé	1
levée	1
lever	1
levez	1
licencie	1
lié	1
liée	1
lisaient	1
lisant	1
lisons	1
livrant	1
livrera	1
logent	1
logera	1
logerai	1
lotie	1
louaient	1
louangeas	1
loue	1
Loué	1
lutter	1
m	1
mâche	1
maintienne	1
maîtrisent	1
maltraitait	1
maltraité	1
maltraiter	1
mandé	1
mandera	1
Mandez	1
mangea	1
mangerai	1
manges	1
manquaient	1
manquait	1
manquassent	1
manquera	1
manqueraient	1
manquerons	1
Manque-t	1
maravillas	1
marchent	1
marchons	1
Marchons	1
marié	1
marient	1
mariera	1
mariez	1
marquaient	1
marqué	1
marqués	1
matieram	1
maudissant	1
maudit	1
maudits	1
Méchant	1
Médire	1
MÊLÉE	1
mêlées	1
Mêler	1
mêles	1
mêlés	1
mêlions	1
menacé	1
menacée	1
menacer	1
menait	1
mendié	1
menée	1
mènent	1
menés	1
Menez	1
mente	1
mentez	1
mentirai	1
mépris	1
mépriser	1
Mépriser	1
Méritait	1
méritée	1
Méritent	1
Mériter	1
Mérites	1
mérités	1
Messieus	1
mesure	1
mesurer	1
mésuse	1
Mets	1
mettes	1
mettiez	1
mettons	1
Mettre	1
mettrez	1
mettront	1
meublées	1
meurent	1
meurtris	1
meus	1
Mis	1
mit	1
mitonner	1
Modère	1
modérer	1
modérez	1
Modérez	1
moissonner	1
mollit	1
Monsieur_Fleurant	1
montent	1
Montez	1
Montra	1
montrant	1
montra-t	1
Montrent	1
Montrera	1
montrerait	1
montres	1
montrez	1
Montrez	1
montrions	1
moquent	1
moquerais	1
moques	1
mord	1
mordu	1
mori	1
Morqué	1
mortifier	1
Mortifiez	1
mouchant	1
Moucher	1
mourez	1
mourons	1
mourrais	1
mourront	1
mundus	1
munir	1
murmures	1
murmurez	1
mutinée	1
mutinez	1
nageant	1
naissant	1
naît	1
nanti	1
natura	1
naviomme	1
nayés	1
néglige	1
négligeant	1
négliger	1
nés	1
niait	1
nicher	1
noie	1
noircir	1
nomine	1
nommaient	1
nommait	1
nommée	1
nommés	1
nommiez	1
noterai	1
notés	1
nourrie	1
nourrit	1
noyer	1
noyez	1
nuire	1
numérotée	1
o	1
obéira	1
obéirai	1
obéissant	1
obéit	1
Obligé	1
obligea	1
obligera	1
obliges	1
obligez	1
obligiez	1
obscurcir	1
Observer	1
Observez	1
obstinait	1
obstiné	1
obstineriez	1
obtenu	1
obtiendrez	1
obtiennent	1
occidendi	1
occupé	1
occupée	1
occupèrent	1
Offenser	1
offensés	1
offrait	1
offrant	1
Offrez	1
Offrir	1
oit	1
omni	1
ondas	1
opère	1
Opiniatria	1
opposais	1
Oppose	1
opposée	1
opposent	1
Opposent	1
opposez	1
ordonnais	1
ordonnancias	1
ordonnanciis	1
ordonnant	1
ordonnerais	1
ordonnés	1
ordonne-t	1
ornait	1
osais	1
osée	1
oserais	1
oseriez	1
Osez	1
ôterez	1
Ôtez	1
ôtons	1
oublie	1
oubliera	1
oublions	1
ouïs	1
ouït	1
outrer	1
ouverte	1
ouvrent	1
ouvrez	1
Ouvrir	1
ouvrira	1
ouvrirai	1
ouvriras	1
oyais	1
oyions	1
pacifier	1
pacifierez	1
Palsanqué	1
parais	1
paraissait	1
paraisse	1
paraissez	1
parait	1
Paraît	1
paraîtra	1
paraîtrez	1
parcouru	1
pardonnent	1
pardonnerai	1
pardonnez	1
pardrois	1
pare	1
parez	1
parfaite	1
parfaits	1
Parier	1
parjurer	1
parlais	1
Parlant	1
parlât	1
parlerai	1
Parlerai	1
parlerait	1
parlerez	1
parlerons	1
parlions	1
pars	1
parsemés	1
partageant	1
partageât	1
partagés	1
Partant	1
partent	1
partie	1
Partir	1
partis	1
parue	1
parurent	1
parut	1
parvenir	1
passée	1
passées	1
passera	1
passerai	1
passeriez	1
passerois	1
passés	1
Passez	1
passionnée	1
passionnées	1
passionner	1
passionnez	1
passons	1
Passons	1
passont	1
patrocinez	1
payée	1
Payer	1
payera	1
payeras	1
payés	1
payez	1
pèche	1
péché	1
Péchez	1
peignaient	1
peignait	1
peigne	1
peignez	1
peine	1
peiner	1
peint	1
peints	1
penchait	1
penche	1
pend	1
pendait	1
pendant	1
pendont	1
pendraient	1
pendre	1
pénétré	1
pensait	1
pensant	1
Pense	1
pensées	1
pensiez	1
perce	1
percé	1
percerais	1
percerons	1
percevant	1
perciez	1
perdent	1
perdiez	1
perdit	1
perdrai	1
perdriez	1
perdue	1
perdus	1
périrait	1
périsse	1
périsses	1
périt	1
perlent	1
permet	1
Permis	1
permise	1
persécute	1
persévère	1
persistez	1
Persuade	1
pesé	1
peser	1
Pestant	1
pestas	1
peste	1
Peste	1
Philosophe	1
philosophé	1
philosopher	1
pillés	1
piqués	1
piquez	1
Pisons	1
pisque	1
pisser	1
plaças	1
Plaider	1
plaignais	1
plaignons	1
plainte	1
PLAINTE	1
plairez	1
Plaisant	1
plaisantant	1
plaisent	1
plantés	1
plâtré	1
pleurerai	1
pleuvoir	1
Pliant	1
plier	1
plonge	1
plongée	1
plu	1
plût	1
Plût	1
points	1
poli	1
por	1
portaient	1
Portait	1
portant	1
Porté	1
porterait	1
portons	1
portont	1
pose	1
posée	1
poser	1
possédé	1
Posséder	1
pourprées	1
Pourrait	1
pourri	1
pourrions	1
pourront	1
Pourront	1
poursuis	1
Poursuivez	1
poursuivie	1
poursuivit	1
Poursuivons	1
poussait	1
Poussant	1
Pousse	1
poussée	1
pousserai	1
pousserez	1
pousses	1
poussés	1
Poussez	1
poyrois	1
pratiqué	1
pratiquez	1
prêchent	1
prêcher	1
Prêchez	1
précipitant	1
précipitez	1
prédire	1
prédit	1
Préface	1
préféré	1
préférer	1
prélude	1
Prend	1
prendrais	1
prendrons	1
prendront	1
prenions	1
Prenne	1
Prennent	1
préoccuper	1
préparées	1
préparés	1
préparions	1
préparons	1
Présageait	1
prescrites	1
présenté	1
présentée	1
présentez	1
préside	1
Pressé	1
pressée	1
pressent	1
Presser	1
presserai	1
pressés	1
présumer	1
présumeriez	1
prétendais	1
Prétende	1
prétendons	1
Prétends	1
prêteront	1
prêtez	1
prêtiez	1
Prêtons	1
préviendra	1
préviennent	1
priée	1
prierais	1
priez	1
prisant	1
priser	1
prises	1
prît	1
priver	1
privilégié	1
procédions	1
Procédons	1
procréer	1
procurer	1
produire	1
produisais	1
produisant	1
produise	1
produisent	1
produits	1
profaner	1
profitant	1
profité	1
Promet	1
promets	1
Promets	1
promette	1
promettent	1
promettre	1
prônent	1
prôner	1
proportionnées	1
proposé	1
proposée	1
prospérer	1
prouvé	1
prouvée	1
prouvent	1
provenant	1
Ptérélas	1
Pu	1
pue	1
puisent	1
Puissé	1
puisses	1
Puissiez	1
puissions	1
Punir	1
punira	1
punirais	1
punissant	1
punisse	1
punissez	1
pus	1
pusse	1
Pût	1
qualifier	1
querellant	1
Querelle	1
querellé	1
querellez	1
Querellez	1
querir	1
quittait	1
Quittancer	1
quittée	1
quitterai	1
quittes	1
quittiez	1
quittons	1
rabaissât	1
rabaisse	1
rabaisser	1
rabats	1
raccourcisse	1
raccrocher	1
racheter	1
Raconte	1
raconter	1
radoucit	1
Ragaillardir	1
ragaillardit	1
raidissait	1
raille	1
raillent	1
raisonné	1
Raisonner	1
raisonnés	1
rajustent	1
rajustés	1
ramasse	1
ramasser	1
range	1
rangent	1
ranger	1
rangerai	1
rangés	1
rangez	1
rapaiser	1
rappelée	1
rappelle	1
Rappelle	1
rapportés	1
rapproche	1
rapprochent	1
rassemblez	1
rasseoir	1
rassure	1
rattachait	1
raturé	1
ravale	1
ravaler	1
Ravir	1
ravit	1
rayé	1
rebattre	1
rebattu	1
rebattues	1
rebattus	1
rebouter	1
recevaient	1
recevra	1
réchappa	1
réchauffé	1
réciter	1
réclament	1
Reçoit	1
recommandé	1
Recommencez	1
recommencions	1
reconduise	1
reconduisent	1
Reconduit	1
reconnaissant	1
reconnaisse	1
reconnu	1
Reconnu	1
recourir	1
récriée	1
récrire	1
recueillant	1
recueille	1
reçut	1
reçût	1
redirai	1
redise	1
Redites	1
redoublamentis	1
redouble	1
redoublés	1
réduis	1
réduisez	1
refais	1
refait	1
réfléchis	1
refondre	1
Refuse-t	1
refusiez	1
régalé	1
régalez	1
regardons	1
régenter	1
régir	1
Registrée	1
règle	1
réglé	1
règlent	1
régna	1
régnaient	1
régnait	1
règnent	1
régner	1
réitère	1
réitéré	1
réitérés	1
rejaillit	1
rejetais	1
rejeté	1
rejetez	1
rejoins	1
réjoui	1
relâcher	1
relâchez	1
Relâchez	1
relevé	1
relever	1
reliés	1
relis	1
remarquent	1
remarquer	1
rembarre	1
rembarrer	1
remédie	1
remercie	1
remet	1
remplacé	1
remplira	1
Remplira	1
remplit	1
remporter	1
remportez	1
remuera	1
renchérie	1
rencontraient	1
rencontrée	1
rencontrés	1
rendais	1
Rende	1
rendent	1
rendrai	1
rendras	1
rendra-t	1
Rends	1
renferme	1
rengage	1
renomme	1
Renoncer	1
rentrant	1
rentrés	1
renvarsés	1
renversé	1
renverser	1
repaisse	1
repaître	1
répandu	1
répare	1
Répare	1
repars	1
repartant	1
repasser	1
repens	1
repentirez	1
replace	1
réplique	1
répliquez	1
répondais	1
répondit	1
répondrait	1
répondras	1
Répondre	1
répondrez	1
reporter	1
Reportez	1
reposer	1
Reposez	1
repoussant	1
Repoussant	1
repoussé	1
reprenant	1
reprends	1
Reprenez	1
reprennent	1
représenta	1
Réprésentée	1
représentés	1
réprimant	1
réprimée	1
reprit	1
reprochait	1
reproche	1
répugnez	1
requise	1
requises	1
réserve	1
réserver	1
réservez	1
résisté	1
résistes	1
résistez	1
Résolu	1
résolve	1
respecté	1
respectée	1
respirait	1
ressemblent	1
ressens	1
ressent	1
ressentez	1
ressentir	1
resserre	1
ressortissaient	1
ressouvenez	1
ressouviens	1
restait	1
resteriez	1
restituer	1
résulte	1
rétablis	1
retardiez	1
retâter	1
retenant	1
retentit	1
retenu	1
retenue	1
retiens	1
retirée	1
retirés	1
retirez	1
retombe	1
retourné	1
retournées	1
retournez	1
Retournez	1
retournons	1
retraite	1
retranchant	1
retranche	1
retranché	1
retrancher	1
retrouve	1
retrouver	1
réunir	1
réussi	1
Réussit	1
Rêvé	1
réveillé	1
Réveillez	1
revenons	1
Revenons	1
rêver	1
révérée	1
revête	1
revêtir	1
revêtu	1
revians	1
reviendra	1
reviendra-t	1
revienne	1
reviennent	1
revoit	1
révoltés	1
riant	1
ricane	1
ridicula	1
Riez	1
rimant	1
rimer	1
rirez	1
Risquer	1
risquez	1
rompe	1
rompez	1
rompiez	1
rompit	1
rompons	1
romprai	1
romprois	1
Romps	1
rompu	1
rompus	1
rosas	1
rosserais	1
roter	1
rôtie	1
rouer	1
rougi	1
Rougissez	1
roulent	1
ruiné	1
rusé	1
Rusée	1
sachant	1
Sache	1
sachons	1
sacrifier	1
sacrifierais	1
sacrifiez	1
Sacrifiez	1
Saisir	1
saisissant	1
saisissent	1
saisissez	1
Saisissons	1
sale	1
saler	1
salue	1
salué	1
saluer	1
saluez	1
sant	1
sarmonné	1
satisfaisant	1
satisfaites	1
satisferaient	1
sauras	1
saute	1
sauter	1
sauvant	1
sauvés	1
sauvez	1
savait	1
sayant	1
scandalisent	1
scandaliser	1
scandalisez	1
séché	1
sécher	1
secondez	1
Secondez	1
secours	1
secrète	1
séduire	1
séduiront	1
séduite	1
séduites	1
semblaient	1
semblât	1
Semble	1
Sentir	1
sentirais	1
séparés	1
sépariez	1
séparons	1
Sera	1
Serait	1
sermonner	1
seroit	1
serre	1
servaient	1
servait	1
Servez	1
servie	1
Serviraient	1
servire	1
servit	1
sevré	1
siéraient	1
siffle	1
siffler	1
signale	1
signe	1
signer	1
signifier	1
Signifier	1
Signons	1
soiont	1
Soit	1
Sollicite	1
solliciter	1
sommeillé	1
sommeiller	1
sondant	1
Songeons	1
songes	1
Songiez	1
sonnais	1
sonner	1
sorte	1
sortie	1
Sortir	1
sortira	1
sortirai	1
Sortirai	1
sortît	1
sortons	1
Sortons	1
soucie	1
soucient	1
souffle	1
souffletterais	1
Souffrir	1
souffrira	1
souffrirez	1
souffrons	1
Souhaite	1
Souhaité	1
souhaités	1
Souhaitez	1
soulage	1
soulager	1
Soumettant	1
soumettent	1
soumises	1
soupa	1
soupâmes	1
soupçonné	1
soupçonniez	1
soupé	1
souperons	1
soupiré	1
soupirer	1
soupirez	1
soupirons	1
souscris	1
souscrit	1
soustrait	1
soustraits	1
soutiendra	1
souvenez	1
Souvenez	1
souvenir	1
souvenus	1
souviendrons	1
Souviens	1
souvient	1
Soyez	1
statuta	1
Suas	1
suborner	1
subsiste	1
subtilisés	1
succéder	1
Succomber	1
succomberais	1
sue	1
suffise	1
suffoque	1
Suit	1
Suivez	1
suivies	1
suivit	1
Suivons	1
Suivre	1
suivrez	1
suppose	1
supposé	1
supposons	1
Supposons	1
supprimez	1
surmonta	1
surmonte	1
surmonté	1
surnommé	1
Surpasse	1
surprenant	1
Surprend	1
surprendra	1
sursise	1
Susciter	1
Suspend	1
suspendre	1
Suspendre	1
suspendue	1
suspendus	1
sussiez	1
Sut	1
sût	1
tabler	1
tâchent	1
tâchera	1
tâcherai	1
tâcheras	1
tâchez	1
Tâchez	1
taillée	1
tailler	1
taillés	1
tairas	1
taises	1
Taisons	1
tait	1
talonne	1
tapées	1
tarabuster	1
Tarabuster	1
tarderai	1
targuer	1
tarit	1
Tartuffiée	1
tâterez	1
tegniez	1
teint	1
teintes	1
témoignai	1
témoignait	1
témoigné	1
témoignée	1
Témoignent	1
témoignes	1
témoignez	1
tempère	1
Temre	1
tendant	1
tendre	1
tenont	1
Tente	1
tenté	1
tentées	1
Tenter	1
tenterait	1
tentez	1
ternir	1
Testigué	1
tiendrais	1
tint	1
tirant	1
tirées	1
tirent	1
tirera	1
tirés	1
Tirez	1
Tirons	1
tombant	1
Tombavit	1
Tombent	1
Tomber	1
tombez	1
tombiez	1
tota	1
totas	1
touchant	1
Touche	1
Touchent	1
toucherait	1
tourmenté	1
tourna	1
tournait	1
tournée	1
tournent	1
tournerai	1
tournera-t	1
tournés	1
tourniez	1
toussant	1
toussé	1
tousser	1
toussez	1
tracent	1
tracer	1
Trahi	1
Trahir	1
trahirais	1
Trahirait	1
trahis	1
trahissais	1
trahit	1
traînent	1
traîner	1
traînés	1
traitant	1
traitées	1
traitez	1
tranchant	1
tranché	1
tranchées	1
tranchez	1
Tranchez	1
transféré	1
transie	1
transportés	1
travaillaient	1
travaille	1
travaillez	1
traversée	1
traverser	1
Traverser	1
traversés	1
tremblait	1
tremblant	1
Trembler	1
trempé	1
tremper	1
trépassé	1
triomphé	1
triomphes	1
triomphez	1
trompais	1
trompes	1
trompés	1
trompiez	1
troublées	1
troublent	1
troublerait	1
troublez	1
troublons	1
Trouve	1
trouvera	1
trouveras	1
Trouverez	1
Trovas	1
trovata	1
tuant	1
tuée	1
tuer	1
tuez	1
Tuez	1
tympanise	1
tympanisées	1
tyrannisé	1
Unir	1
unissent	1
unit	1
usait	1
Use	1
usée	1
usées	1
usez	1
Usez	1
usurpée	1
usurper	1
utilisé	1
vaille	1
valent	1
Valoir	1
vantant	1
vanter	1
vantons	1
vaqué	1
Vaquer	1
vaudra	1
Vaut	1
vécu	1
vécut	1
veillant	1
Veillas	1
veille	1
veiller	1
vend	1
vendu	1
vengeant	1
vengée	1
vengeons	1
Venger	1
vengera	1
vengerais	1
vengez	1
Venons	1
venont	1
Ventrequé	1
Venu	1
verolas	1
versait	1
vêtir	1
vêtu	1
vêtue	1
Veuille	1
veuillent	1
veuillez	1
Viande	1
victime	1
videz	1
vieilli	1
vieillie	1
viendra-t	1
Viendra-t	1
Viennent	1
Vînt	1
vîntes	1
violé	1
violées	1
violente	1
violer	1
visité	1
visiteraient	1
visse	1
vissiez	1
Vit	1
vîtes	1
vivaient	1
vivent	1
Vivent	1
vivrait	1
vlà	1
vogam	1
Voilà-t	1
voilés	1
voiturer	1
volant	1
vole	1
volent	1
Vostra	1
Voudrais	1
Voudrait	1
Voudriez	1
voudront	1
voulaient	1
Voulait	1
Vouloir	1
Voulu	1
voulut	1
Voulût	1
vuidera	1
